AM1377CC179FA-17,56.0,0.8469383325385397,0.9271249064960722,1.5067995633346734,0.0022900767005605382,0.8473202499018572,0.9277078338727875,1.4841727203597335,0.0022553925055857037
AB2028A607NE-17,134.0,0.8639913365613303,0.9199491613956231,1.6830118345846048,0.0026954930784549498,0.8711187561348125,0.9222780699583157,1.693255407593707,0.0026996204318558235
VS580RS-17,141.0,0.8875211113674677,0.9243784225992001,1.5619902523975642,0.002376345113055319,0.8906318405868576,0.9246274351346039,1.5451762510876093,0.0023791246579226042
ALM55791GR-17,63.0,0.6956184475668823,0.8870603019486468,1.5919918846464303,0.002662472696629174,0.6947248844547724,0.8882840171403725,1.59317830901283,0.0026786480691857644
S6NE-17,119.0,1.0204597171691538,0.9168684833495978,1.5851247654930347,0.0025500909686954395,1.0089873527075626,0.9172658462792864,1.5777684451094642,0.0025605748906662685
ME188FA-17,258.0,0.8804597862638133,0.9138590557846453,1.6017832899297666,0.002551611456593907,0.8809289034978418,0.9133742571745141,1.5971271387820036,0.002549330766102626
S3NE-17,163.0,0.813047119945714,0.9211914644903793,1.6090129707650724,0.00266072169103798,0.8072590107987552,0.9196613913836975,1.618924397938239,0.002650160080411167
VS585CC69AR-17,57.0,0.9075897473018971,0.9063921693861917,1.5325255711014458,0.002421560061177545,0.9037994936049814,0.9079490529815992,1.5296785238913704,0.002423306769287944
S6RO-17,136.0,0.9287739850766922,0.8768183692659072,1.6695978998682677,0.0027105549335237687,0.9313846273498645,0.8787500679959062,1.6636302938609275,0.0026925894281375623
ME187FA-17,196.0,0.7747872498219488,0.901420583897821,1.7008231965405871,0.002659534510571247,0.7831225389244294,0.9008502241921424,1.7038624488375813,0.0026629472531161263
ME171NE-17,51.0,1.0030006451855726,0.9200013287195964,1.7624083541016413,0.0028564544032159338,1.0082594865127241,0.9211002474180605,1.7657875363331823,0.0028576667208345184
ME171VE-17,119.0,1.1166617288581544,0.9008340317186256,1.7479241601166564,0.00316422881879813,1.122520983859991,0.9022738255548403,1.7496209288404638,0.0031679391131940425
S7NE-17,69.0,0.8708837747496796,0.9167464573773452,1.5155234320821762,0.002360396842411418,0.868222031255591,0.9127640664686888,1.5227289178714565,0.0023351041850530833
S7RO-17,61.0,0.9861016792611513,0.9053971510536541,1.5934012624405582,0.0026214775381880637,0.990380156200277,0.9063878014600912,1.5876864861663629,0.0026125151241971427
S7VE-17,94.0,1.0186237170273595,0.939370028889512,1.6811717134397117,0.002910618387751656,1.0183283173165871,0.9436690714793512,1.6831762584729688,0.002888609891538678
S20VE-17,83.0,0.8086006862195602,0.9160267819722844,1.6777936040540826,0.0027458479319673683,0.8079598297567507,0.9217848966098615,1.6841218464177552,0.002721843307136524
S8FA-17,72.0,0.5949006228964672,0.850495414233488,1.4654578494146964,0.002151331561156451,0.6010987978025376,0.8574344967662659,1.4671540886802097,0.0021668357772552556
S9FA-17,556.0,0.8562892037813725,0.9121958628673008,1.5896115567455824,0.0025735079866925268,0.8494308819846226,0.9130998386159033,1.590750039874574,0.0025775891684350514
10153NE-17,129.0,0.927816567841345,0.922596150852213,1.7477269955668826,0.0027555458386582725,0.9341681645158229,0.9241690076060257,1.752359566350878,0.0027685372542193614
S14FA-17,276.0,0.9541330347224327,0.9180022163372814,1.659033431687743,0.002801987013783263,0.9561209382887854,0.9207923410334076,1.659428617123774,0.002815836583222055
S13FA-17,172.0,0.7755537998776706,0.9156503594141937,1.7402931087074645,0.0031099478913440086,0.7788253983029998,0.9166859585324945,1.7331348366222676,0.003110409357295131
G10NE-17,52.0,0.6463296049103722,0.8842146704065036,1.6600964497216424,0.002764093332571889,0.6483594768824004,0.8871100136279135,1.66360944238216,0.002781360721105435
AM1459DD70VE-17,128.0,1.0205234377313979,0.9140838332252156,1.6473571183390276,0.0028196457219152086,1.0172295464930023,0.9148773203884417,1.6550757148797377,0.0028083897053856424
S22VE-17,38.0,0.9021074638861025,0.9238215870483214,1.6352253199290592,0.002784070469745934,0.9022922336620239,0.9287492370012529,1.6329605845223532,0.0027618730131551807
R6GI-17,102.0,0.856557909524799,0.8697585127374619,1.5836127677948806,0.002579384503423408,0.8480648529681349,0.8627404561846619,1.5881090550675707,0.0025847578691812847
ALM56427VI-17,24.0,0.9786491284567572,0.9223869189444809,1.5868971374042535,0.0025537199391565866,0.9802549924119193,0.9283988788777835,1.5699873015981276,0.0025389832045431384
C5FA-17,98.0,0.9818691146704062,0.9352779371847931,1.7244685505175186,0.0030917080002730163,0.9847403544452434,0.9352886450390914,1.7237497474276076,0.0030704736163483888
883586NE-17,50.0,0.7621392802276515,0.907793243209775,1.5619270528775926,0.0025127709716131655,0.7599353605092196,0.9113881484823723,1.5642903262838486,0.002504384645937269
FARANE-17,179.0,1.1783617158887723,0.9270477285553844,1.8787756170605565,0.003250073103573384,1.1823876689832022,0.927674847767441,1.8850098326529174,0.003262771128247438
ALM56363FA-17,267.0,1.0157734993216019,0.9068673495257764,1.8890377807134167,0.0037636117205573417,1.0203537162203542,0.9037525695860431,1.8825403648576304,0.003763570874337329
ME190BE-17,465.0,0.8305672077051348,0.9105812972870385,1.5462650202697537,0.0023900879728813063,0.8260404947244488,0.911740481253497,1.5393586241127106,0.0023804855478020558
G3NE-17,310.0,0.9464778362317161,0.9027734521277817,1.585894816476679,0.002355962259438298,0.950549994387519,0.9028531180833788,1.5893586346898965,0.0023546234865091014
LI9125021NE-17,516.0,0.640094328781406,0.8652947889316484,1.5122377915686505,0.002361638752179585,0.6263562313027482,0.8645801087861327,1.5090691428895948,0.0023681144183656305
ME200FANE-17,131.0,0.6599061242906231,0.887129995735516,1.4979042000130296,0.002315296937458511,0.6541847061236056,0.8863251035725422,1.4955332612234447,0.002305501111269784
S16VE-17,315.0,0.6863746260356255,0.8854678244388922,1.6301419553217478,0.0027731629764262238,0.6870284432327161,0.8860030692101319,1.6318304526828706,0.0027759549488339825
ALM55842NE-17,267.0,1.019650788571385,0.9157068815537408,1.5347582516683704,0.0023451330576709406,1.0225963712236417,0.9143222405210681,1.5324824868148892,0.002362857491039393
S15NE-17,64.0,0.8958938725476049,0.9142261068066883,1.61824325756627,0.002598757662294198,0.8988092070227003,0.9173074725799719,1.621112605563811,0.0025901394089116055
ME195FA-17,469.0,0.9527763161755681,0.9216681634300397,1.5644583435769526,0.0025227029077730806,0.9429252973433573,0.9209048390330543,1.5654918246515215,0.002528234503738909
ALM55842RS-17,227.0,0.8566684315262414,0.899160919126607,1.5071544216296304,0.0022097365192255353,0.8566455760790725,0.8981164260175984,1.487647514370283,0.00219897582684413
S24FA-17,77.0,0.9472110300471758,0.8697036352783348,1.7640067137495192,0.0029987913827839653,0.9527509751928731,0.8676381811293055,1.7685705595345873,0.003006199880272364
ME200FAVE-17,182.0,0.6918361559613931,0.8888102767088338,1.6599855896588809,0.002827166012625684,0.6841961950855764,0.8874916208616779,1.6594266532563178,0.002814571936138392
AM1463CC252NE-17,135.0,1.0032900449164515,0.9270816216073263,1.8592501623679905,0.00326276539273088,1.0065243924873633,0.929826493632079,1.864117638061392,0.0032814363331135047
G11FA-17,59.0,1.0005338334010083,0.9187806272687253,1.5305230685910514,0.002468998794969564,1.0016621312757175,0.922234984470425,1.5240426096231745,0.0024603209430179946
C9VI-17,234.0,0.9130542317192328,0.9098414358165953,1.6952335006889883,0.002907796641975898,0.9147875508359837,0.9141761451988251,1.6785059916325529,0.0028904368919414787
S32FARO-17,522.0,0.8265973818030706,0.920136296193212,1.6899718197769502,0.0030168702603694526,0.836518330229095,0.9216130101246569,1.6936103367312665,0.003014724931234085
S34FARO-17,308.0,0.647929207690722,0.8848948285927493,1.7114201478936397,0.002914626235883091,0.6599971856332681,0.8864899282972445,1.7096869414882707,0.002907374404730962
1727LFARS-17,1143.0,0.9905308158457736,0.8951367044641941,1.549969570387381,0.00246680493906412,0.9955071647174163,0.8973224688635781,1.542576448829423,0.0024523438433331985
S33FARS-17,970.0,0.9567361509701185,0.9066909716580599,1.7280073129044424,0.0030344811560250734,0.9613960500456578,0.9080445258421375,1.7295200489560705,0.0030234847021497376
1727LFAAV-17,1622.0,0.8382483460964593,0.907950278565013,1.580308721364018,0.0025276829305145992,0.8363072982355828,0.9090185537981861,1.5738821031433146,0.00251245171281979
ME196FANE-17,1119.0,0.8569624510610749,0.8914445109508152,1.7711678892017109,0.0032740404748154116,0.8603685199445295,0.8896858224424589,1.7646922459555607,0.0032706041040929776
S33FARO-17,351.0,0.6651286643575697,0.8843605297060115,1.6932892510617743,0.0029725440048947445,0.6777511170493842,0.8861947954824392,1.6962620333942624,0.0029650965673097673
FAYFARS-17,921.0,0.9834363762717038,0.9291888037740895,1.5151092972865392,0.002331867063045882,0.9806503507007925,0.9275656800682042,1.5087835402959988,0.0023135132711080775
VG7128FA-17,83.0,0.9740930440390784,0.893672894280383,1.6741496472360646,0.0029748700950591248,0.9790221192344002,0.8938452950790623,1.6660242909720777,0.002957541889197441
ME218FA-17,708.0,0.6928226816817896,0.8964011338244227,1.508090219204546,0.002278641789275121,0.6922069770985919,0.8953645452443582,1.4984672411900122,0.002271733805778343
S32FARS-17,618.0,0.7053987961115782,0.8991584523579531,1.5436069471700644,0.0024011883386148773,0.7172669680497967,0.8995863073672923,1.5386321991235246,0.002397986889260944
S34FARS-17,313.0,0.8829140687182044,0.9208095308528264,1.5009140700711967,0.0023583749331043025,0.8897182814913652,0.9230509683676067,1.5031487670766603,0.0023526844546672334
ME213BL-17,696.0,1.0708329125735072,0.9287409707981192,1.7212346108833458,0.002768180467111072,1.0678739131984551,0.9300898659465793,1.707246417608805,0.002748281196054789
S48BL-17,1189.0,0.8191025644235205,0.9024130108533682,1.5775129147353324,0.0025634142195308613,0.8131374886287912,0.8997156525200094,1.5653056552105857,0.0025548917469753506
FAYFAGI-17,253.0,0.7118048697680709,0.9004198639762974,1.5019950489168934,0.0023539437322605875,0.7060574839405827,0.9005744608656341,1.499306716434897,0.002340576844622873
G14FA-17,177.0,1.0051623825750151,0.9310655831499752,1.6469065477568359,0.0026360490326744527,1.005493330035014,0.9330759906869348,1.6368756377465519,0.0026273853117208265
B567NE-17,62.0,0.7642948822660842,0.8930864697346714,1.5283374229393958,0.002374452241146285,0.7643471753010995,0.8929527401963537,1.5321350709697867,0.0023925664001389554
ALM56168BL-17,178.0,0.8059110198921747,0.9266928503417042,1.469876449744348,0.0022438726928012977,0.8050006307332285,0.9273585211659244,1.4662671404254133,0.0022309500643639107
A3035D4NE-17,9.0,0.7221953365671351,0.8836993768329039,1.718955970239757,0.0028753543828976516,0.7210391473907785,0.8817655517389942,1.7076947347650044,0.0028880493329805244
CA1068111BI-17,51.0,0.810952024943485,0.9016640098336959,1.4603862360343454,0.002213971726809739,0.8178129752112031,0.9015588187244745,1.4616224952057921,0.0022283613729709877
AM1378B43CC204PA-17,556.0,0.7968996116647881,0.8966325337471753,1.4757760622653746,0.002261399560139533,0.8023950343097135,0.8977668099532965,1.4678746405171492,0.002247321500264042
890901BL-17,92.0,0.6337128788336598,0.8686905025322598,1.4065376479004292,0.002065381502272701,0.631007359638236,0.8692429507522761,1.406905709579252,0.002063367499168165
ME190BI-17,494.0,0.869758144266128,0.9078624968881743,1.5307224313631254,0.0023307683184956855,0.868879491170595,0.9087678880037848,1.5261967813470354,0.0023106418850509366
VS575CC187CC204PA-17,250.0,0.6416679831853188,0.878885692057585,1.4659977429101,0.002271109825708949,0.6448782163025175,0.877078811580567,1.4563074085359515,0.002269198524211478
LI1077950NE-17,19.0,0.7438965068350777,0.8906792741250582,1.6228025764523564,0.0024904432078381557,0.7402129715800181,0.8917591650581769,1.611514818058248,0.0024888894897448595
LI9150350NE-17,44.0,1.0655058076537218,0.9283021074655996,1.5628779553712828,0.0024679851084520653,1.0661435622836466,0.9298010170773587,1.5675613362073457,0.0024688324975656534
A3057A735RO-17,321.0,0.897473375912821,0.896164685532378,1.4175658452883824,0.0020594814737696088,0.9032242024755681,0.8977076864787475,1.410025957211745,0.0020534599568696964
A3057A735NE-17,203.0,0.8060916934805075,0.9193596068100792,1.473702101325553,0.0021734359792299736,0.7996476621715582,0.9227619285637807,1.4627766212186193,0.002153100741146042
S36NE-17,173.0,0.7086633850178233,0.8978316077332313,1.6120730374478163,0.0026421043815004017,0.7083815131980651,0.9004452539163291,1.6180187650179505,0.0026410590234827768
S49FA-17,564.0,0.7446600718719171,0.8980886970725269,1.47932860175053,0.0022767686134066187,0.7422266603905416,0.898331820525329,1.473060340239233,0.002255033139705896
S36RO-17,108.0,0.786687959969533,0.8495338352454787,1.5896511022623734,0.002618056967779191,0.7882184361939398,0.85123105585721,1.592951225271408,0.002629146110593227
CA5595FA-17,52.0,0.7431959537965033,0.901460319367201,1.4323795162161426,0.0021004169839585144,0.7403491961723176,0.9011135768994585,1.4276873825068608,0.0020764780220888634
LI9154921FX-17,1465.0,0.7115941635351036,0.8824894052596713,1.4940413056202668,0.0022398308244163394,0.705757032156276,0.8834512375004995,1.4910194800353525,0.002228997501051196
M8423909BI-17,753.0,0.7167234367061797,0.871331150648802,1.4486614570992318,0.0021852955398924093,0.7137049342923547,0.8719297798859439,1.4463706514033132,0.0021815542695778033
8795221BI-17,24.0,0.7260502036426119,0.8934239064503128,1.4376926273563317,0.0021468729458994887,0.7340805837955018,0.8939183255795526,1.442297789705224,0.0021652572239848136
ALM56757FA-17,421.0,0.7163578501978106,0.9055649152717821,1.4453653197922682,0.0021263272923770136,0.7126146556783929,0.9040667074316723,1.439544599216536,0.0021245857954814732
RICOFA-17,12.0,0.9956512876599946,0.9359487748363443,1.484054339575961,0.0022411798024768227,0.9946189240893684,0.9356239304760601,1.4765510346499509,0.002218946627516199
515BI-17,547.0,0.8888208315106786,0.9036340077996083,1.5363401614547252,0.002481677041800794,0.8858654178015422,0.9020422473333242,1.535312067247959,0.0024801191927319383
515BL-17,339.0,0.9324613502056683,0.9201676888966466,1.5439665805832883,0.0025068176267682043,0.9343796384496695,0.9177112296735359,1.534683673002481,0.0025056649357376192
515RS-17,271.0,0.8760155066788914,0.8867689598509857,1.570889688900583,0.002586659991493339,0.8627793394378029,0.8887618518837609,1.5726417255460947,0.0026085827908995623
515VM-17,356.0,0.9726464057298903,0.9232252020980679,1.5272220275735844,0.0024122723365203966,0.9673593672903418,0.9247422122846813,1.5224459271251427,0.0024203634001327126
515NE-17,340.0,0.9176579353186538,0.9134114645020558,1.5933474321704155,0.0025647429919323107,0.921956721475859,0.9123842608140851,1.5808354220063392,0.0025584676539978585
LI9125021IND-17,362.0,0.7173051088097467,0.8875455655332868,1.4955360026900133,0.002335027648761345,0.7249731749946138,0.8855488565335186,1.4941824888293378,0.0023267141589832048
S43BL-17,347.0,0.5320924947734159,0.8440997758559177,1.5809195226624,0.002556161008187132,0.5446878537234042,0.8443043235013397,1.5832850060431785,0.0025648679358173374
1236RS-17,1625.0,0.8315965712091536,0.8957394002303639,1.5744298309784828,0.0025402054738561243,0.8181465633748423,0.8974293935837233,1.5824208120742176,0.0025568621317574713
ME230BL-17,378.0,1.20653442637634,0.9072996828466385,1.7319423220853833,0.0029378301043172673,1.2007915012345434,0.9088062986533298,1.7433077013677196,0.0029317103276235634
S48NE-17,284.0,0.8499328312178019,0.8968228032141989,1.6048585475069472,0.002575832459982039,0.8506359498274729,0.8965950548468004,1.6202876250955123,0.0025854915042943273
S52FA-17,919.0,0.8101613876411481,0.9125189585308574,1.739948402234193,0.0027084879591742516,0.8086391749818956,0.9133126269884957,1.7361857931919644,0.002700588714339612
ME214FA-17,322.0,1.2916939165394166,0.9214218302551851,1.7426836148847,0.0030524840607457737,1.2833680474554745,0.9252659830197127,1.7407280998507089,0.0030410962919988956
TPL1029BI-17,191.0,0.7706052310694007,0.8780887376483907,1.3970337754461086,0.0020366771029340694,0.7660556004961366,0.878576110165209,1.3904895919564058,0.0020437581258088036
ME227FA-17,677.0,0.7822199880147788,0.8497071674416442,1.7476724483305264,0.0032379317614727155,0.7774342090285353,0.8513861371003849,1.7541500502422647,0.003229559088567658
PETRAFANE-17,813.0,0.6133448751814229,0.8712075848659625,1.6841722203244875,0.0029280873906586385,0.6090796775902655,0.8719784207867627,1.6816215327617368,0.0029187724609223624
PETRAFABI-17,782.0,1.144007085219074,0.9150064868575488,1.7086277937187138,0.002919786936023906,1.1375397085722088,0.9184184724980418,1.7041645723855938,0.0029080040540013993
1772FR-17,361.0,0.645378764436423,0.8547561547331058,1.4909508014943176,0.0023388087278759244,0.6375831984322733,0.8547133730387336,1.495773003598054,0.002353955481821968
XL2424FA-17,3280.0,1.1468425185367737,0.9088965764516838,1.7422781545495925,0.003081177887604864,1.1422097845358188,0.9073566418161256,1.7403920203154204,0.0030887184030685957
XL2398FANE-17,865.0,0.9273251454293089,0.9292483328395976,1.7356647051568623,0.002935945470043508,0.9301185181199505,0.9325010545722681,1.7327958059420325,0.0029382147662984897
XL2398FABI-17,766.0,0.7130865566898831,0.8803103747003149,1.7230323947355906,0.0028228494461912655,0.7201419260212576,0.8794478407533861,1.7170242808851195,0.0028391907474047662
N2099FABL-17,512.0,1.167247986336285,0.9305847838473359,1.7232508326532194,0.003134397843710325,1.1682171181784926,0.9290572500805956,1.7196239772842365,0.0031204290169789895
N2099FANE-17,546.0,1.0485609330034622,0.9222965589482971,1.7214733201215224,0.003137695066857052,1.049205443500957,0.9210781705769466,1.7194587548533633,0.003129932036956995
ALM57050GI-17,1762.0,0.8635964252047,0.9047703903733889,1.4473795438571138,0.002047970364281421,0.8737070341898312,0.9062251353048302,1.4444228730170554,0.002054745645412911
INDIAFA-17,807.0,1.0884003225656098,0.9207998889692783,1.6974266369505007,0.002994253483989287,1.0820495786038906,0.9221471816286113,1.6969420216663886,0.0029886633867309206
474205BI-17,825.0,0.7618629107667666,0.8658477813730068,1.3996828380875381,0.0020567800944264712,0.7573124036477569,0.8660226845013912,1.3917667387006607,0.002072302056131423
474205NE-17,1078.0,0.7135087829077597,0.8661189196170644,1.515935556571199,0.0023584482000436635,0.7029693239364037,0.8669254724761439,1.5222371110777217,0.002349660122315353
G28FA-17,2182.0,0.6975069161907287,0.8693888828260944,1.5248211677878782,0.002449461274552611,0.6913829198709671,0.8694981939289734,1.5336399556638125,0.002449282321548614
S63BL-17,123.0,0.9826827532198202,0.9169637043340509,1.8969207788118017,0.0038024293637855915,0.9850453706603981,0.9186794520457701,1.8916780667781654,0.0038152280410909964
VE7001JE-17,386.0,0.6797518263032409,0.8914073915716466,1.4976700267897927,0.002250961551640507,0.6817443456436099,0.8917931323317054,1.4898780490471417,0.00223930427285878
TPL1085PA-17,472.0,0.6202583261099059,0.860622608893861,1.449049724295005,0.0022187298886703903,0.6233495261550923,0.861041395288439,1.4459120063642683,0.0022238284521460703
T1971YPA-17,572.0,0.924622886363533,0.9257766201173206,1.5469433324332231,0.002427687016336659,0.9373144047807349,0.9265717219801277,1.5560464613012022,0.0024209795041446247
TPL1085BL-17,548.0,0.8267134825853076,0.9101774232826679,1.4177745155620556,0.0021013828528849737,0.823458348591287,0.9106764238644025,1.4208531507873947,0.0021127844457936645
8494302W4JE-17,133.0,0.9100029712199039,0.930570523867011,1.4881872333766244,0.0022494751871572067,0.9117036897570202,0.9342016645222332,1.472945291244752,0.002244503717863641
AB3191E131FA-17,717.0,1.013590998161432,0.9054638990221013,1.6609041216863503,0.0028299610144685836,1.0069977449056378,0.9049399752353825,1.6643702014800041,0.002836731046542304
S63GI-17,109.0,0.7430695819852454,0.8521290056933534,1.7330489385687018,0.003027896850549513,0.7504512632452257,0.8524916918498069,1.7290200661479567,0.0030314327102683165
VE999FA-17,2322.0,0.7053861801489839,0.8775825196991612,1.4171269345806954,0.0020091056714582633,0.6978643707828134,0.8765085803009669,1.422424903087819,0.0020133999876707056
VE7012FA-17,1756.0,0.7134921772938664,0.8786614229503544,1.4496729448336856,0.0021197589293867284,0.7057917955859543,0.8775509046159023,1.4559134111281617,0.0021198272392133196
G27FA-17,74.0,0.7057508178047761,0.8814118768276576,1.4425068156903114,0.0021600544462976887,0.696858057147287,0.8799631475715859,1.4511270657713813,0.0021538528553734964
1772BE-17,397.0,0.8158904570495306,0.9142895843966586,1.7554197792922521,0.0032015636882806262,0.8129747962538614,0.9148547881158242,1.746147687622611,0.003176103592441793
ALM56358FA-17,1235.0,1.1759445885688657,0.8717507617744941,1.7666736179828986,0.003250405136046322,1.1702764883067824,0.872977217771935,1.7699767997435205,0.0032584777513286764
NL15FA-17,692.0,0.837066574302035,0.8803202282391288,1.5027959048708286,0.0023003305595881147,0.8314585446995385,0.8811076196306347,1.5097939577246102,0.0023014233188713073
VE666VE-17,1577.0,0.8499866192329636,0.8917615809728847,1.6857375219753106,0.0029504220117981543,0.8518977956341172,0.8937636636962172,1.6817639097090331,0.002939036163099201
ME231FA-17,431.0,1.1825223038839416,0.9279940297999554,1.6393937064822721,0.002802215001474295,1.1861421227517746,0.926006277295664,1.6369953855002919,0.002812363523126438
LI9119338NE-17,1410.0,0.813593110017647,0.876287421746469,1.4766156977173346,0.002261231189445705,0.8054934111373592,0.8765019782616387,1.472371528810045,0.0022472598776067582
XL2754FA-17,498.0,0.5726857128100723,0.8350713555257809,1.462803834539023,0.0021828526733142094,0.5681021238955605,0.8314692510348722,1.4691019300186987,0.002188981191484544
XL2398LECFANE-17,7.0,0.931502922642645,0.9338832269563483,1.7256991972482831,0.002755223507093858,0.9344248056635321,0.9365478495183752,1.719420521282255,0.0027578276779293897
10485FA-17,1916.0,0.8180618768110376,0.9189307996062385,1.6281636145031078,0.0027159390494535507,0.8230441119444256,0.9207629348800033,1.6256366675082234,0.0027168868096558363
ALM56840RY-17,941.0,0.6887294722276692,0.8740320908398372,1.4589317069474166,0.002234977568371712,0.6970467343787479,0.875941108209802,1.4610934922402792,0.0022320543179783197
10411FA-17,858.0,0.8703688383954588,0.9060282521162045,1.54263785396771,0.0023965854234072495,0.8678284787806825,0.905015700807036,1.5488771586954835,0.0023945288554585494
ALM56840NE-17,711.0,0.8914076965773069,0.895104448598287,1.5138233812978683,0.0023845182850405033,0.8810203614215784,0.8942240752764753,1.5115940730510804,0.0023805905517153567
XL2713FANE-17,1598.0,0.6153062249592595,0.8575007808692118,1.4647505032531514,0.002197984275522588,0.6100766205059633,0.8556677486155653,1.470805686317548,0.0022038560694782115
XL2713FAGI-17,775.0,0.7990871577224995,0.8675789733146994,1.4233448652752327,0.0020733337755753506,0.7999005637925956,0.8687821679652705,1.4283396893401386,0.0020776401871452736
1237VM-17,239.0,0.9284657503543458,0.9233709062724086,1.5375308162976171,0.0024563143656839066,0.9190331179716129,0.9243192258217698,1.5350555735705376,0.0024545474253008636
1237NE-17,184.0,0.9924294094260343,0.9207497813355213,1.5089753233469934,0.002335841918493673,0.9940913241839717,0.9222505001607939,1.5043946656664526,0.002341593897984497
1237BL-17,180.0,0.7720603401646953,0.9016274351324052,1.5285489684967375,0.0024250247489526256,0.7700542229843879,0.9023850807653819,1.5323663825866352,0.002441247240803874
A3233909VE-17,587.0,0.6264019866452573,0.8716103804365868,1.408054033894153,0.002022656373684146,0.6271553778159275,0.8760628065833651,1.4091200622623732,0.00200392683249673
A3233909RO-17,401.0,0.9695368877212768,0.8791544316386933,1.4305355677457088,0.0021061085991953775,0.9674855294069479,0.8790233457736757,1.427327401231516,0.002097629259873365
AB3191E191FA-17,1102.0,0.7320052274727226,0.8946759891270691,1.3720002902142012,0.0019233328889652981,0.7261176798855127,0.8929765634675011,1.380844427657993,0.0019226181787979201
ALICEFA-17,936.0,1.2201680389874612,0.9342975736058751,1.5068866897675874,0.002355349281546553,1.2155896712034613,0.9329515476070442,1.5127774183348854,0.0023514417515837285
A3233909RY-17,308.0,0.6521081836957688,0.8582979589780909,1.4392926889823576,0.0021863889166164486,0.659452649497349,0.8584336149542414,1.445232180752096,0.0021928054304502713
AB3191NE-17,480.0,0.81323480701333,0.8664250150442058,1.4066918668246746,0.001985005003074299,0.805817687768208,0.8662655263223844,1.4035864019074213,0.0019725503889743623
XL2069NE-17,400.0,0.8413727695487339,0.8987335221830285,1.4375228709696628,0.0020703868348385746,0.840131314783211,0.8952566047551305,1.4449501477039544,0.0020759775264615676
ARIANNA65FA-17,323.0,0.657493747080634,0.8768808955812301,1.4283358604773202,0.0021209211330018864,0.6509514645112611,0.8749469523293424,1.4340948314943929,0.0021214215850922343
XL2755FA-17,1518.0,0.7454474057377679,0.8890702254917079,1.4398319960824866,0.0021572959934378134,0.7376245159747752,0.8879478751335782,1.4459457183413094,0.0021537516199464837
ALMA7107FR-17,450.0,0.8383883745162756,0.9028288982606686,1.5255715021121163,0.0023831111127945157,0.8363413080868024,0.905158351753256,1.5222094748823483,0.0024056981173380294
WINEFA-17,895.0,1.1006444489834006,0.9194139679799553,1.545015694571201,0.0024798845221439365,1.0956030276435693,0.9208081865049573,1.5460725862336786,0.002472783839545234
LI9104638FA-17,729.0,0.9130866977400114,0.9133812227392423,1.4966757150536483,0.002274232800234857,0.9079951363446425,0.9112864508325798,1.49793645706216,0.002274318963904362
CC1FA-17,1304.0,1.0175962757677397,0.9305257426379997,1.4849971110916564,0.0022741233362321115,1.017489130478309,0.9313442442836413,1.48718595972336,0.002265927468817339
CONTEFABL-17,268.0,0.9140930427328486,0.9249494383310354,1.4910477410153382,0.0023028207745715954,0.9141015372407578,0.9261116749783973,1.493384910759173,0.0022926746852814208
CONTEFANE-17,220.0,0.8799947328860794,0.9199818218729082,1.4947251240127064,0.002317654410410569,0.8799887263255931,0.9214403865149656,1.4989412094541859,0.002306461645886789
PASSS50FA-17,303.0,0.8641408887576073,0.8950167326499235,1.4802744673610773,0.002108838585163701,0.8664372133335257,0.8998523365251048,1.4746231456722874,0.0021083800178585627
PASSLI9154621BX-17,128.0,0.9009643613937732,0.9007806845799123,1.5056018733664922,0.002359512116028232,0.9052059261969405,0.8986283814385376,1.4961986388689827,0.002329182786337842
SS15VI-17,440.0,0.8807169691044511,0.9275168428345628,1.5601845581987164,0.002458775994429127,0.8782889718514401,0.9286629259767297,1.553045663706592,0.0024557147287571604
XL2784FA-17,419.0,0.9445275364731059,0.8937706594073301,1.5656096322656843,0.002564803923029843,0.942989237745379,0.8924287667845369,1.5692094920865773,0.002558548211221745
XL2783FA-17,1183.0,0.8841775291370425,0.9083720630666429,1.5616867923350963,0.002500971099002791,0.881978084146363,0.9095559063921147,1.5617205267647902,0.0025096828407711455
LI9169021BL-17,349.0,0.8734668613287759,0.9340100891322768,1.4632145080161292,0.0020639275790338726,0.8630761915124914,0.9336409178144149,1.4533965717780863,0.0020231829224689767
SS14FARO-17,754.0,1.1192325420674518,0.9126580897496591,1.5948904140267244,0.0026356142790195138,1.1159338650839725,0.9154180487437806,1.5897324969993052,0.0026218967252750807
SS14FARS-17,696.0,0.5763673018121688,0.8534338782621327,1.407308017547096,0.00200397048576285,0.5839093773213422,0.8547680714377985,1.4082288379998993,0.001996411090480492
SS18FABI-17,1162.0,0.9969441343330008,0.9199409360847494,1.4221975787160677,0.0020933322715815535,0.9959989106963328,0.9227050868481571,1.4212378750925554,0.0020901340025442617
1236BI-17,651.0,0.8577012547205448,0.8909727730275896,1.4231448493077028,0.0021206428458585944,0.8540394599754862,0.8911384094291683,1.428023207000492,0.002132187850761721
SS18FARS-17,998.0,0.6378090393048449,0.8870874872858532,1.491239158153368,0.0022681289676914585,0.6445202456332146,0.8893045303417659,1.4948471694737377,0.0022598771434841737
N2113FA-17,478.0,0.7717381962627868,0.9128941060327826,1.3794923984178544,0.0018965359733478862,0.7681867756475786,0.9139872282134431,1.3758631160872614,0.0019022210750704498
VE17280VE-17,227.0,0.9521915863619613,0.9255040202287819,1.3927682665259358,0.00200911699723197,0.9521934908764574,0.9259300065673375,1.386705525414892,0.001993160743933805
VE17280NE-17,138.0,0.6946554748151029,0.8780554661660972,1.403270568037085,0.0020096153185635243,0.6960426570751654,0.8792626740453546,1.4068972552848111,0.00200585715767742
A3315909S3BL-17,553.0,1.305729486211374,0.9412341406268133,1.638115839960358,0.0027609627674402694,1.3049435796309972,0.9433339186787366,1.6227109141789235,0.00274452566459725
ME248FA-17,649.0,0.7922382592538643,0.9082690831863833,1.4314485769913035,0.002099687016630949,0.7920099260411291,0.9094314354240577,1.4323338819778801,0.0020969045313453316
A3012905A79NE-17,309.0,1.2499993119138006,0.9261539230451076,1.558817500586339,0.0024504487726600657,1.2444867845278669,0.9242177562367633,1.554330427148674,0.002468421201946156
ME242FA-17,514.0,0.9304018420070489,0.9188119304460892,1.4115705155877871,0.0020894728064981423,0.9365000205642857,0.9209350114434536,1.4047102487458545,0.0020779947287886957
ME241FA-17,343.0,0.79169766539407,0.9116248267161603,1.450803717044667,0.0021549635443699803,0.7918539048660234,0.9124251106551132,1.4528176693566013,0.0021527414851718477
GG2FA-17,1448.0,0.9931676590151858,0.9356039656886838,1.5245373030553537,0.0023939449534759014,0.9960088537645124,0.9392066102093399,1.5291519765370531,0.0023939338850590165
ME190AIBE-17,708.0,0.9320825614722218,0.9258827677570567,1.4636004762870636,0.002175435063542242,0.9226498968962173,0.9245048802556644,1.4745121638620633,0.0021833391231368955
A3150905A609NE-17,766.0,0.9088566769579357,0.9052591907360575,1.587595801556447,0.0023260413777964426,0.9055967244717877,0.9055145118540411,1.6035567324187256,0.002335147843609779
SS8FA-17,725.0,0.8073964671469618,0.9129867357329036,1.564402521373749,0.002491061083209678,0.8076750004415367,0.913981952812682,1.5662382674154762,0.002481752639559756
GAIAFA-17,2855.0,1.1902524908176473,0.9434171010450974,1.5317243952740667,0.0023592053412883783,1.189963424689477,0.9425040379815505,1.529262964631997,0.0023591162916881585
C114NE-17,299.0,1.0428236592431122,0.9155003611824712,1.5841880063630214,0.0023244122549875286,1.0382048580706187,0.9147534092222668,1.5898164503356074,0.002332977287035913
ME246FA-17,242.0,0.9656993826350978,0.9243651026929282,1.493624493130241,0.0022856395694648706,0.9693863160725645,0.9244919166261075,1.49400860005042,0.0022870417435963946
A3345909VM-17,466.0,0.7461887193269653,0.8985627334654706,1.410068118629174,0.0021243013825760887,0.7394562179206579,0.8978737907403896,1.4074229880681284,0.0021345376424817385
PEDROFA-17,871.0,0.8582024634961556,0.9173612339458247,1.3878353445639293,0.00199570073970852,0.8570382568597896,0.9169697611189942,1.3965009385534297,0.001995802853393672
M87339091124NE-17,187.0,1.0290818741623033,0.9192164479868227,1.4411394002054012,0.0021370201562401596,1.0283620448161026,0.9205731904897305,1.4438927833047144,0.0021444934122467722
SS16NE-17,946.0,1.2981353438169456,0.9230664591042533,1.655298729577341,0.0027942107585062427,1.293715501522008,0.921537468207285,1.6568235072154032,0.002823587744888533
SS26RS-17,310.0,0.7036050834973445,0.8762847556529328,1.4166987160371616,0.0019834670071541974,0.7028186067545745,0.874211343194485,1.4076680148899734,0.0019730052513427256
ME240NE-17,939.0,0.9887953916602795,0.9081358422890782,1.4748738993425379,0.0021853556436592257,0.983304892340545,0.9082636655412916,1.4786763693675211,0.0022108763034224383
SS25FASE-17,1741.0,0.9331084267932064,0.9158488471916674,1.3872077149913455,0.0019852573770994205,0.934386114163855,0.918783919755645,1.3891608959978408,0.0019851027698517946
10817FA-17,686.0,0.8097181706284435,0.9086617053131211,1.4283370748022726,0.00210991897441818,0.8098679488150793,0.9097605306881096,1.43053020449619,0.0021194249928137244
SS25FANE-17,1671.0,0.8993416847953912,0.9326570809892901,1.3811851235580324,0.0019626542323898546,0.9012349238260629,0.9351820643020223,1.378532123919575,0.0019568732394965255
SS12FA-17,1556.0,0.8261073444746277,0.9116315809800156,1.4650517363502713,0.0021249495564886044,0.8212743475079465,0.911545830324284,1.474450490990558,0.0021229745197560686
10741FA-17,901.0,0.9840776208703416,0.9308797813047645,1.4306314936783278,0.002076056687426103,0.9838981729604852,0.9303720992934088,1.4278929518011791,0.0020808624433397275
10740FA-17,3376.0,0.8267718759913524,0.9140851288984213,1.399619281534405,0.002031266080965189,0.8224275739954892,0.91446425432179,1.4093109611739085,0.002030236625693432
10740RI77231VE-17,1527.0,0.9484100174126109,0.9361449206121327,1.3907573479952633,0.0019527338403482317,0.9430388671212182,0.9398225877970264,1.3795288419516454,0.0019491368771650697
10858NE-17,484.0,0.8620696702114162,0.9354305951719896,1.479809793929509,0.0021921217136253415,0.860183628090186,0.9384934842027965,1.4657316176997544,0.002184049882697981
A3338B292HA527FA-17,472.0,0.8523222617363838,0.9179551247789144,1.4753923697208264,0.002256181901257059,0.8478162219669788,0.9183846585610649,1.48207872189306,0.0022618122760640676
C129NE-17,262.0,1.285457767981136,0.9225164479797833,1.5189753444580212,0.0023635545485889827,1.2871328629108936,0.9225732471799825,1.5176830800656456,0.0023663935863400664
SS24FA-17,1291.0,0.8909271833177798,0.9177108338315896,1.4981144669806632,0.0023319049585266175,0.8847015511398635,0.9182694855354969,1.5042914288517282,0.0023392215166754744
ME225FA-17,473.0,0.9111467995613528,0.9226084717031774,1.4295417534996275,0.0021208779261565353,0.9123146742962727,0.922044264846082,1.439455950471205,0.0021187778542363566
AMVS006VE-17,197.0,0.6736276658300291,0.8797190431607742,1.4219772989116288,0.002124762643250275,0.6713508957145995,0.8773990739329323,1.4194135605827074,0.0021128102799836943
AMVS006BE-17,213.0,0.8586064387648107,0.9059030978159998,1.414689910291747,0.002051039298792912,0.8582773623232949,0.9106506864627105,1.4076949243321277,0.0020357189045800443
ME256VE-17,476.0,0.8842229003185372,0.9100666976471823,1.497893904365993,0.002298159511239276,0.8877030352340738,0.9111542697172204,1.4998441978443222,0.0022918004200100654
CARBONE41VE-17,255.0,0.9102076480925607,0.9209605605511854,1.5053076769290887,0.00229498872137969,0.9160544313254271,0.9211595608902934,1.5073604994633034,0.002283940712610881
SS30FA-17,363.0,0.7992347932843907,0.9149320392947233,1.4269343745354572,0.002116452372868014,0.7924313646056871,0.9145241951635044,1.4303628521822207,0.002125125319374573
SS28FABE-17,1315.0,0.8493388018179228,0.892135936247675,1.4936332598717057,0.002307739258722225,0.8539955511172599,0.8965834309846388,1.4941579253334278,0.0023080576023898755
CLAUDIAFA-17,2271.0,0.8179519376032699,0.9133528173313691,1.3838973849463594,0.0019667968837670164,0.816969940192946,0.914538576586806,1.3864146378921245,0.0019808460294810774
PAOLAFA-17,1233.0,0.7490637291768865,0.9156609769052184,1.3927555467503747,0.0020033966428753603,0.7491972837912998,0.9192276889056205,1.3944571806936987,0.002010287379357481
SS28FANE-17,1182.0,0.7305831652021229,0.9134095510477594,1.4845159763673872,0.002275703088215087,0.731425451185957,0.9169174016961195,1.487023581768988,0.0022811111379221387
SS28FAGR-17,786.0,0.6580411826625788,0.8981403709446014,1.6255191704712717,0.0027811746721026487,0.6585526429993561,0.9005237663916448,1.6261591441520769,0.0027714948228594423
867054NE-17,386.0,1.1557637454955618,0.9252494160939033,1.5320392623484569,0.002353284223336864,1.154802262327062,0.9262455290518454,1.536671953350196,0.002353299960863541
VERONICAFA-17,693.0,0.9276373871286768,0.9274828681075501,1.3767469135098984,0.0019465592366792524,0.9278704055525504,0.9276072239937467,1.3800551391093996,0.001956285409678042
SS29FA-17,1001.0,0.7740641992273195,0.8760375944505805,1.4687030789612017,0.0021548238518581068,0.7706261864383117,0.8723642801504066,1.465649876370532,0.002160360215496559
ILARIAFA-17,387.0,0.8770246148698392,0.9050104330231101,1.4400753883352115,0.0021668743565138584,0.8674624985307029,0.9035049868568101,1.4449716924527545,0.00217218194373393
AMVS001FA-17,525.0,0.6992140666255993,0.8806469225876613,1.381407923975079,0.00198235292142287,0.7050292250305918,0.8844042744361026,1.3817216587896963,0.0019858802002807926
GG9FA-17,1704.0,0.7589111567569438,0.9098555160770632,1.4206004473830411,0.0020944174578572186,0.7605300290740622,0.9135040481875495,1.422321130138959,0.0021028579500931843
SS34FA-17,1451.0,0.8212257306113084,0.9097143168063844,1.4893103928786322,0.002308640089606833,0.8155599297876066,0.9124635367795669,1.4913506010588236,0.002316369248450993
A5099F4FA-17,1048.0,0.9124561995638891,0.9201205555146313,1.385828836680367,0.001991865838366516,0.9041920548630782,0.9207157825631413,1.3895514712372083,0.001998032922913312
SS24BISFA-17,402.0,0.9664108399547594,0.9242268542341779,1.4718603698777841,0.00225967742775032,0.9594242608774342,0.9247665855913938,1.4746340959685829,0.0022634410934741717
1236LBE-17,1271.0,0.8313850955822137,0.9058174631021872,1.4455974359433508,0.002172350952791139,0.8306479624042158,0.9076497158983649,1.4436866199224352,0.0021738790734319316
17213GR-17,2987.0,0.7244548364585214,0.915330583435122,1.4627814130012535,0.0021942026270953025,0.72347870161795,0.9167839155298744,1.4567330184963452,0.002214195505838542
1283BFABL-17,925.0,0.7288571341329412,0.889753926745981,1.3774287765579574,0.0019474116240192566,0.7353432691028916,0.8922593830307453,1.3760407304612334,0.001945746598105627
1236LGR-17,2281.0,0.9092318038479456,0.9378297002986806,1.4984163230522658,0.0023312263545983247,0.9078328422015921,0.9395721574818593,1.4939462102422936,0.0023469294659938093
A5069F26FA-17,632.0,0.8360518772434683,0.9186322992238048,1.4443823067624448,0.0021305002391338425,0.8368927043345584,0.9216238426855486,1.445818901026858,0.0021394181704732997
17213BE-17,2767.0,1.053086969722586,0.9293214950671924,1.46528029528518,0.0022374169577889257,1.0496938858813012,0.9340057843536934,1.4635906474904188,0.0022402190450275562
A35069091124BX-17,547.0,0.7216738116423512,0.8881384475934997,1.5714701664266062,0.002548517914086474,0.7129027911851027,0.8841452332084352,1.5792899587864433,0.0025732641621097987
1283BFANE-17,773.0,0.8897978340455891,0.9188357228911692,1.3586666560621021,0.001920051250149481,0.8981289980939455,0.9184955122886476,1.3540815187696211,0.001916600815216062
XL2845FA-17,1064.0,0.8377891798583158,0.9129387660517229,1.4124983100388562,0.002052854467315821,0.8294002305746264,0.9132334586585795,1.4153731022585276,0.0020559609557797894
CC5FA-17,2941.0,0.7587263881981667,0.9133626174122425,1.5816188377447684,0.0025767129339855604,0.7592252837153058,0.9163323799521479,1.5835732602999073,0.0025790562655282874
ALMA7653VE-17,374.0,0.7300292949334913,0.8997710040492292,1.3736225228589243,0.001983451326902184,0.731135557683699,0.9015722708976684,1.369746342692867,0.0019735409160213466
A3559F225FA-17,509.0,0.8127335789946883,0.9128989824201734,1.4588142496092267,0.002210289420581104,0.8040580867531948,0.9119426474174813,1.4601254837611144,0.0022146951241192904
1287GR-17,1014.0,0.9487076607221665,0.9411378428639788,1.4703914391154473,0.0021891049384092686,0.9479905378216044,0.9432344702923054,1.4675474708503797,0.0022057760304724262
VE117208FA-17,1088.0,1.0243785256986302,0.9332165583980441,1.510795441077165,0.0023632307672421977,1.014879121790039,0.9322019676108997,1.5152575848259977,0.0023684277689668557
A3346B315TFA-17,371.0,0.6959615420704051,0.8921985704865065,1.5321936063841888,0.0024370067902251533,0.6871698031618855,0.8925045131916935,1.5344027722914704,0.002438981944271337
2008BE-17,352.0,0.6351911008690075,0.8629302167941292,1.4500032122963262,0.00218470694625649,0.6323561661535172,0.8668221613965437,1.4514079922476881,0.002192619478786329
2008GR-17,359.0,0.7320796120678047,0.9168838583207973,1.5005616777416055,0.0022005373383295343,0.7311723013534637,0.917611432220417,1.5050342495214797,0.0022172731258560618
1287BL-17,1346.0,0.898166950191738,0.9225062729470754,1.4225436732033412,0.002048394969780767,0.911174813232717,0.9211972262152575,1.4279737165989523,0.0020488819608810954
A3494D19NE-17,871.0,1.3179264757861378,0.916586066895633,1.6434329062800739,0.0027060615810865427,1.315482569153306,0.9157181204317093,1.6430322000388462,0.0027065686847100295
A3373905RO-17,778.0,0.6668575138167059,0.8504664745915248,1.4357331979501822,0.002062598420187346,0.6712258233317194,0.8559832475954923,1.431718132636276,0.0020535482836750623
ME5139FA-17,874.0,0.9642111398737275,0.9314471058949386,1.474825131145005,0.002232608611891611,0.9550780400829758,0.9301787326552526,1.4801300373486406,0.002239491708994857
ALMA7558NE-17,701.0,0.6283379550990934,0.8531284184279562,1.738046100800956,0.0031929015978146616,0.6267134808772612,0.8543849192711895,1.7332112027196211,0.003193146046081079
ME260FA-17,654.0,1.0817149318174615,0.9384210479425964,1.4733045323941374,0.002164268403610301,1.0728252487830163,0.9377478502724951,1.4810597269294088,0.002167644496725658
ME165FA-17,733.0,0.7892550003779913,0.9198032323092891,1.5196498027966776,0.0023905082315400145,0.7867698823755009,0.9183494089547992,1.5137381426390562,0.0024018740351711156
ALMA7555NE-17,640.0,0.6517446766386674,0.8953989114180256,1.7139112939602905,0.0029031332665817905,0.6520414035999422,0.8948714380031404,1.6869636677718507,0.002883581320464685
1672RS-18,646.0,1.37705117413273,0.9272253507303216,1.7426679311765083,0.003064224433197442,1.3758940376873237,0.9283889765638313,1.7390600518365456,0.003071442129724881
A3357B306FAGR-18,157.0,0.871587158120819,0.9218328561659521,1.4337673875785015,0.002118107405809726,0.8715315614762231,0.9224307139865617,1.4352012167702672,0.0021289125922175443
10740FANE-18,839.0,0.9266168026564244,0.9261854568078914,1.5215705525073044,0.0023801536363581197,0.9172762923698432,0.9234231478407047,1.5230912128691037,0.0023941121504222375
AMVS016NE-18,387.0,1.1929289026551202,0.9362155306607005,1.4490245714362595,0.0021568893902901127,1.1824778925327175,0.9399103166968965,1.4387495759410336,0.0021342923974007042
ME257NE-18,423.0,1.0465409521818763,0.9208051955666963,1.46034102404842,0.0021634352886165903,1.0508011101773342,0.9206410932891582,1.4464605739627383,0.002164613338670494
C562FARS-18,318.0,0.7421047912205815,0.9044422308180075,1.5983760036097616,0.0026724156898554614,0.7355033399813162,0.9022914321561162,1.6008461259693858,0.0026793547121755894
AMVS016PA-18,135.0,0.9296370154628968,0.9209883505281634,1.428788874419446,0.00208410424385153,0.9274527621201136,0.9225084718384111,1.4276574669577649,0.002062920968743432
1672GR-18,716.0,0.8684506783792729,0.9186730688649153,1.4994745945901158,0.002335374983032632,0.868268127143142,0.9200718151807631,1.4949718889709902,0.0023610057695856636
1672BE-18,462.0,0.8166926606626776,0.9036929696086929,1.492894999802978,0.0022833132071950215,0.8178454549196768,0.90519825243077,1.4948935988977203,0.002291461297279243
A5984T132NE-17,1134.0,1.0024817844813625,0.913481467729692,1.5689265405644137,0.0021877625344123904,1.0080744916639957,0.9176483693178795,1.567020815060678,0.002186311309602634
A5984T132GR-17,836.0,1.0221978665974938,0.9519793693020703,1.4943681191565006,0.0021937969984809746,1.03024096328291,0.9491295429558253,1.4848235143804964,0.0022180855336513886
2878FANE-18,821.0,0.8249832565015692,0.9108586707509047,1.3970226499626375,0.00202019067559253,0.8184561377915598,0.9090150059854256,1.3982465311230787,0.0020270710708162934
A5964T100FA-17,1415.0,0.8244525210718373,0.9236734546711753,1.4299243837768973,0.0020737755647928548,0.8244347072017756,0.924263973822484,1.4303769789895675,0.0020846091206543887
2879FANE-18,229.0,0.6802848532892612,0.8752496911822277,1.3790669965805054,0.0019220807058615192,0.6818942398442511,0.8742042371189278,1.3856205798250256,0.001916263364032357
9854455FA-17,1651.0,0.8110453173051438,0.9042514035186188,1.458637516590087,0.0022209290443823454,0.8049208917665629,0.9024282537966877,1.4592269113350558,0.0022331294241546506
SS35FA-17,1789.0,0.9753030264407597,0.9266920962495084,1.4754484041896163,0.0022641633201955854,0.9654263388322457,0.9234705912790453,1.4766744261016351,0.002276800276459292
S2FARS-18,627.0,0.6752561605414278,0.8860959355018356,1.3706853607077731,0.0019325589672114097,0.6754028352634208,0.8860828191812891,1.3758364203376083,0.001942985565298993
S2FABI-18,262.0,1.115349642648474,0.9447349040675469,1.5026150377894514,0.002229795129236684,1.116581464743673,0.9455163408218987,1.5133137967650736,0.0022394626050090604
AMXT3161VE-18,169.0,1.3809911363855403,0.9339569845896856,1.7127423168040818,0.0030284306713884764,1.3804394314295443,0.9334950918926949,1.7079934392171379,0.003012768446634977
11205FANE-18,2305.0,0.8970468110972748,0.923584875778721,1.374199460946503,0.0019005098239988178,0.8956970386064594,0.925835543110237,1.3798518861786413,0.0019102662567632342
A3491B520DFANE-18,235.0,0.9195188543285119,0.9212243066194775,1.3781573793533346,0.0019634632242451445,0.9102630465732875,0.9189905469924478,1.376416763023233,0.001996919077155425
AMXT3161SE-18,191.0,0.8020628639688145,0.89858563378256,1.6489882117062216,0.002801500970809308,0.8057984070878654,0.9000812541290094,1.649810183758885,0.002803263888115092
11206FANE-18,273.0,0.8317979067698812,0.9012490498317646,1.396085823242726,0.0019932256442141256,0.833209062375081,0.900011864405809,1.4002649129927514,0.0020021648503188803
A34019091124VE-18,267.0,0.9716433711436041,0.9190403217034806,1.5240461450714833,0.002300093942661726,0.9648654627946045,0.9287281212937524,1.520893202337486,0.002289339605421578
EMMAFAVE-18,307.0,0.8370833784931785,0.9155192233182646,1.3761125947505437,0.0019267364470355794,0.8393556213013639,0.9162504387519107,1.3819078187359617,0.0019405692270616207
A3368B504MFABE-18,867.0,0.9667248256441857,0.9291414690383508,1.511251433046889,0.0023600452165012673,0.9686157727667009,0.9299322813291862,1.5154763016009232,0.002370748954028475
G1FANE-18,1618.0,0.8944464951341592,0.9209648694068394,1.4015845823573578,0.0020303303367517297,0.8861477671336107,0.9192869695568582,1.3979768143884326,0.0020634909650253303
MARGHERITAFABL-18,218.0,0.9077673539799135,0.9189930648636911,1.4412593458779837,0.0021636873486491526,0.9003255274870028,0.9174986417532858,1.442893945583526,0.002197010042355689
S8FANE-18,313.0,0.8609040163566714,0.9137496076374704,1.3839060604611049,0.0019807236299629913,0.8512688339138033,0.9123189560654708,1.3803759111781246,0.002010484701507593
A335490941755NE-18,383.0,0.9931007838747795,0.9070628200347116,1.4179243025654582,0.00201698189219293,0.9898194207187461,0.9151119557005012,1.4045018504110907,0.0019974252043411535
CAMILLAFAGR-18,556.0,0.8122588381485901,0.9101301119035129,1.448507635521439,0.0021486564115994217,0.8139725358195797,0.9107318677850574,1.4505071042453195,0.0021443436713342217
A5129FANE-18,283.0,0.7367839962314409,0.904505655178434,1.3676733005811055,0.0019098472443567457,0.7314635099097835,0.9028704299548873,1.3649702544725453,0.001949370224826932
MATILDEFARS-18,239.0,0.856120967924248,0.8987778259082108,1.4003936319592742,0.0019129163765541632,0.8454287746261833,0.8966787540053726,1.3910266739292056,0.0019511907329189952
C343NE-18,31.0,1.068943081862555,0.9020666172770452,1.4115363683215898,0.0019964236676095993,1.0739604955175979,0.9030479010706003,1.4173443547758806,0.0019926403564242716
A335490941755AM-18,336.0,0.7793428820336415,0.8778123532783392,1.403281493340951,0.0020478949287263994,0.7771273830523995,0.8855884011294145,1.4035416159254988,0.0020268448475349813
S3FARS-18,1397.0,0.7471412661946193,0.8854087508987645,1.4532932635124245,0.0021033962511568557,0.7432756950241691,0.8832453550334389,1.437882468059851,0.002137487758615219
ANGELAFANE-18,382.0,0.9359054569136296,0.9270119919994761,1.3635977067775584,0.0019152405394123623,0.9379424930147169,0.9263368456001808,1.3770920876641828,0.0019167326931017249
GIULIANAFARS-18,844.0,0.8397931023491392,0.8936034661011208,1.4408566349771104,0.002076945893779807,0.8294115742054713,0.8927788858052893,1.4308013876938135,0.002113125551975132
GIOVANNAFARS-18,255.0,0.7830130199291379,0.8965113751348683,1.3785158960160386,0.0019035894996345312,0.7899413574018849,0.8967253449247594,1.3778242406503018,0.0019330193660691123
ROBERTAFANE-18,302.0,0.7003250270267957,0.8954784933158701,1.3377528567486328,0.0018360287485339258,0.7080829606316028,0.8969113014312236,1.3399226538926636,0.001857326166801358
A3490909VE-18,763.0,0.9691662023581399,0.9172339786797242,1.3981728080824913,0.001995686880370803,0.962880081989422,0.9270650847014381,1.3969007055818246,0.0019969311287580185
11205STFABL-18,879.0,0.8664536905088142,0.9138825669628479,1.4723668797029588,0.0021543051717241597,0.8566564580507547,0.9106995367485402,1.4582300395842518,0.002178599147306594
11205STFANE-18,1013.0,0.8360598187352197,0.911816218435443,1.4636857111556731,0.00210894084080511,0.8272582578619379,0.9091036578018421,1.4502187768517045,0.0021339947068087072
11205RO-18,262.0,0.9441443177289687,0.8805243130370967,1.5014867957039952,0.0021939772254389368,0.9373710936171337,0.8897717647487333,1.4838519427622443,0.002209690159914881
586RFAAV-18,159.0,0.6145606385493861,0.8647244287096544,1.383734610714187,0.0019867309103260636,0.6223942141312501,0.8649646015843164,1.3897080481511557,0.002034965543209738
586RFARS-18,140.0,0.6923056542647749,0.8742379226664716,1.391213430868718,0.0020098316737446466,0.6992624149142728,0.8747004131476005,1.3977251402262487,0.0020590256995115528
A3084A607FA-18,1600.0,0.9471801240981871,0.9232137883896301,1.5578921339072835,0.0022986274900807365,0.9406456278191105,0.9211359158556957,1.5672979558953442,0.002318685495726748
A3484909BL-18,294.0,0.831223391702632,0.898736603820376,1.4236942915175794,0.002038948919244952,0.8084022554408941,0.9125894398777623,1.4089641093277323,0.0019911298320452967
A3484B546DFABL-18,701.0,0.8739286812500305,0.9155525072090421,1.3894114833990843,0.0019235698179526327,0.8635522104215555,0.9126410929057267,1.3764912075011642,0.0019524453059056564
A3484B546DFANE-18,802.0,0.9359077037857894,0.9194839092347128,1.382397842888377,0.0019386848584309572,0.9232637978676257,0.9170533329263746,1.3682774443885104,0.0019650735734441168
A3484909RS-18,668.0,0.7382307187062604,0.8589912999862387,1.435653940851789,0.002034086270584922,0.7374524399718372,0.8712820291737142,1.4132871576381805,0.0019874242808841057
A5163T44AP15RS-18,106.0,0.8622197829312972,0.9124022369000575,1.4107555112505077,0.0019903012247447765,0.8567897594305509,0.9127970402459238,1.4071341350807225,0.0019685745058524865
A5163T44AP15NE-18,95.0,0.89294103854207,0.9204427976276092,1.4813316343366771,0.0021146926048046973,0.8916039126338694,0.9199965364561233,1.4290810247981938,0.0020183361299652303
ME240PENE-18,431.0,1.2037935005758909,0.9124259714987355,1.6031216788685623,0.0024972955938859323,1.211407273516349,0.9211444439368092,1.6043335719170213,0.002505409568799179
ALBAFANE-18,437.0,0.972298631330938,0.9298074645965396,1.361867114063167,0.0019054797944255332,0.9745339681619936,0.929527507741921,1.3791875332306156,0.0019182393257148656
ADRIANAFANE-18,267.0,0.7798903885138165,0.8951489057121993,1.4295590476427378,0.002084635171428186,0.7777740760599269,0.8961773540019495,1.4436478307686578,0.002108017984798657
318090FANE-18,286.0,0.7168950582389372,0.9075344364131678,1.3966781349653299,0.0019053444354941258,0.7216575552013911,0.9111086987224262,1.3934760808176376,0.0019066209107442618
318112NE-18,388.0,0.9840220764994213,0.930987950519626,1.4022370609245212,0.0019174329450461335,0.9909615416962609,0.9295844740263353,1.3528434609531597,0.0018230348649901742
1727FARS-18,522.0,0.8266946306023844,0.8933291188305033,1.366569700186364,0.0019395248012917298,0.8318613915430639,0.8923514702616397,1.3625540547806003,0.00196697062451171
A3300909RS-18,708.0,0.8804756587682926,0.9160743570777911,1.4724074833540721,0.002192332749349105,0.8757380941002018,0.9146664639178369,1.4653148982447708,0.0021669730983615455
A3300909NE-18,631.0,0.9888566552049,0.9321110121808069,1.5552358916958988,0.0022909204541967437,0.9954329354429676,0.9305262994327179,1.5054319071621138,0.002195558805017256
11364FANE-18,1342.0,0.888285762878378,0.9131711555098748,1.4524242287798839,0.002168341525625674,0.8840397043132691,0.912980447420741,1.4428958725679808,0.002198370785079772
1727FAAV-18,766.0,0.818199891370193,0.9069414508566748,1.3986717025757673,0.001988702925839339,0.8210281653148574,0.9070495346662666,1.3948109419713715,0.0020142204108011376
11364NE-18,398.0,0.9539918200365357,0.8968273765909305,1.4586979262086326,0.0020954163832259706,0.9497078939132919,0.9090450275485688,1.4553729626569767,0.0021033655879158343
ALMP18243FANE-18,156.0,1.0125800153194229,0.9283884744093754,1.5596942177651967,0.0022924438123671513,1.0140653248345681,0.9274608193813895,1.560513648563623,0.0023089967606228345
A3719F246FABL-18,392.0,0.7608129098775036,0.9004667304714581,1.383800321349684,0.0019321890615816271,0.7519454857602152,0.8986712930257572,1.373473170772968,0.0019533950801313
A3530B509FA-18,149.0,0.9860295871369193,0.9312635197499461,1.488174550800295,0.0022876371096101815,0.9876990488548715,0.9325508390311097,1.4897727191166852,0.0022997995412427615
1823BE-18,1525.0,0.6964412375928745,0.8844099831213669,1.4479906921924597,0.002154894988727806,0.6940957863193686,0.8860652906195676,1.4681321185428386,0.0021905361355684565
ALMP18585PEFANE-18,1117.0,0.8685117986583616,0.9090408041894648,1.532808701589081,0.0023819827511840155,0.8558664364601967,0.9066369312344592,1.520666323146107,0.0024105739846931994
C5BL-18,629.0,0.9450521774494708,0.908827905235472,1.4565356388617117,0.002136230046137331,0.9253875536189051,0.9248892665996177,1.4386598097989962,0.0021040822754275
A3362B521HFABE-18,372.0,0.7446733047649324,0.8908467053813413,1.557503993899214,0.0024029125194565096,0.7467781713367942,0.891026229987415,1.557113175249957,0.00240294365029709
LI91913FARS-18,1538.0,0.8879830176367182,0.9061882176524781,1.602108230076752,0.0025673619629436877,0.8837736232275654,0.9055153291946502,1.5886072719485642,0.0025737852201467683
1236RS-18,947.0,0.8217160402758922,0.8990702948143795,1.4153599092919105,0.002101259844581911,0.8217064879216536,0.900942975259363,1.413512234858501,0.0021122258450257227
S24FANE-18,271.0,0.6472892219322389,0.8786264619114671,1.4617145222353585,0.002065189162895047,0.6423100026961199,0.8790657962381616,1.449896549186873,0.0020822868408269047
G2FANE-18,415.0,0.8130503454615868,0.9197629906040388,1.506815549554262,0.002297412221328894,0.8111257191505102,0.9172718043534678,1.5122890764199521,0.0023206955443527116
S22FANE-18,657.0,0.829726106907459,0.9248940808979419,1.6279243268043677,0.002645029992545561,0.8312068725871398,0.9282668622610813,1.6269887491998052,0.00264403933744415
S26FANE-18,593.0,1.269647373239285,0.9352741085786573,1.5751170323126444,0.002543384707864319,1.248338731360731,0.933486685725903,1.5610691137975174,0.0025463081487452073
11318FANE-18,278.0,1.0827959930819187,0.9340770334960284,1.538595730210367,0.002429734530934117,1.0685754927172895,0.93242138022045,1.523921428749639,0.002441349628697094
1236FX-18,273.0,0.8021824684880486,0.9023734327450602,1.4389626498632826,0.002164371244304193,0.7997619837328745,0.9011356750446122,1.4390881713634216,0.0022116710346228056
1236BL-18,976.0,0.9496489820376056,0.9231360117782496,1.4145481424879014,0.002075411800328016,0.9572695331321744,0.923423042070425,1.4320781485652347,0.002098333735516723
1236BE-18,742.0,0.755082204396878,0.8936635764904738,1.3902991011468815,0.0019276916210850036,0.7537895349709913,0.8947176431875113,1.4008726359746957,0.0019639968488942144
A5899909NE-18,53.0,1.2890143305955821,0.9250768040085946,1.6124601164082035,0.0025874361166253203,1.288943319002478,0.9357184700978856,1.608930255342273,0.002590038364556256
S21FA-18,908.0,0.6877535251274485,0.8901953477925358,1.564104251641848,0.002524798546741932,0.6824669007575416,0.8892001869158779,1.5517632463315847,0.0025540964131596294
11318FARS-18,60.0,1.2210537159946069,0.9158085078669412,1.4950106476963925,0.0022601050027819453,1.1989083079432357,0.9149688408073886,1.486036088050195,0.002281801682964074
A3565B504FA-18,268.0,0.8451696247066058,0.9153977994887863,1.4940096115887014,0.002334664172444858,0.8463360137334882,0.9142311690455908,1.5091703393522895,0.0023469216808817512
G8FANE-18,443.0,0.9549185130018868,0.9118153255391834,1.4369426868519,0.00206935315934861,0.9390113593646168,0.9123996911570106,1.4239063158965912,0.0020572786345735734
S12FANE-18,230.0,0.9890260909644749,0.9299772994358583,1.5964950324685858,0.0025343191996706343,0.9810538657957236,0.9337484334502253,1.5881220297529108,0.0025313399200889756
S20FANE-18,1753.0,0.8411398935395712,0.920470133002283,1.3571195089436026,0.0018032111871456912,0.8442715593362342,0.9238113252813323,1.3485553351812065,0.0018019419803478025
G7FANE-18,1112.0,0.9419710007886115,0.9253070192047962,1.5693364212065992,0.002564427145495988,0.9299276090142381,0.9276461376741563,1.5609941766320905,0.0025656577767125817
A3315909S2FX-18,423.0,0.9434824601651948,0.9144076676991443,1.4580680305188807,0.0021584650999061975,0.9424026880604822,0.9170033681794293,1.4463539544859843,0.0021389418577826115
A3315909S2VE-18,465.0,0.7711026202716872,0.8782593258108687,1.500328008306005,0.0022836845323876086,0.7722114310576814,0.8889246719213568,1.5051116039315047,0.0022960938602087904
1821RS-18,551.0,0.7914555865747479,0.894407188896165,1.4167436732664036,0.0021149113722185643,0.7896729099855311,0.8965159411122099,1.4103065209828347,0.002125227245791205
C10FA-18,353.0,0.657995107165995,0.8598185056454936,1.3549823015347562,0.0018841796041584684,0.6597387172552247,0.8596748354635377,1.3525788410837187,0.0018979940445177138
1821AV-18,564.0,0.7758486125116798,0.8965399934728966,1.4336567235336573,0.0021368437973310057,0.7786793692762968,0.8963336084538601,1.4294830444077842,0.0021442254193318197
1821BE-18,445.0,0.8153154574766468,0.9063715602113644,1.4145133881767584,0.002043278028793513,0.8119347409986911,0.9076715660255364,1.431303061345293,0.002078819364417516
A3315909S2BL-18,596.0,0.8900487926232369,0.8989758830049728,1.4919376692898594,0.0021837700971874575,0.8732520295738375,0.9158208897126325,1.4766449345217394,0.002162102635791979
A33331124971FABL-18,1220.0,0.9494721058403277,0.9124798030645507,1.4482824652512687,0.0021025540360122765,0.9513889705532755,0.9125549849909139,1.4508401425693997,0.0021343529150267453
11461FABE-18,670.0,0.8802317650013475,0.9039501139876028,1.4075088334517265,0.001981699502219533,0.873700023073989,0.9051998825523793,1.3991752040855778,0.0019656225252030505
ME271VE-18,711.0,0.7789405055673656,0.8939318571935403,1.4695931620901626,0.002194360715637634,0.7788276747890595,0.9037214221423502,1.4738581254967578,0.002190926217091261
S37FANE-18,914.0,1.0236405320100974,0.9340731084807791,1.4123604627044737,0.0020500599184194723,1.013018020987189,0.9376937302661541,1.4012319829853825,0.0020381108815798995
A33331124971FAVE-18,776.0,0.9876262099963372,0.9088765174745314,1.4225515698983624,0.0019702281405332206,0.9887682694700222,0.9103572839041529,1.4252612076588813,0.002004374350781047
S34FA-18,875.0,0.7334724341901824,0.8927544907241433,1.469139289885158,0.0021119346745403825,0.7293512613227043,0.8911203681398217,1.4733628041407,0.0021157459201826957
718011FX-18,285.0,1.2711360011546222,0.9147702414203636,1.6024520438368928,0.002506460538506011,1.271295418760631,0.9147907508366167,1.6127715558266664,0.002534332640072681
A33331124971RS-18,1434.0,0.8559801909887157,0.8978672077423643,1.37111589497507,0.0019642550542973702,0.8560497571439782,0.9003065898645259,1.3721636957240755,0.0019502575293261642
A33331124971BL-18,1368.0,0.941130558115255,0.9160744486208658,1.4068509969577896,0.00198268663588886,0.9474278571495901,0.9153974597325893,1.4089206697961503,0.0019871414050627997
A33331124971FX-18,867.0,0.9214286740748343,0.9111931318138208,1.4807753462056412,0.0022091098417823195,0.9202255951907582,0.9103033142805554,1.4925628167378409,0.0022332508093500496
ME269AM-18,215.0,0.8490414053114859,0.8981465924691904,1.4821270463428469,0.0022854906719664368,0.8498254469442679,0.9039170043484673,1.4908459188182919,0.002307971659631198
1130PRS-18,300.0,0.798695461395702,0.8940795165198895,1.3481221990793875,0.0019063380137291626,0.7965453669754492,0.8947310676985127,1.3416294928746157,0.001911425891548696
XL3234STFANE-18,574.0,0.7795164662746088,0.904502350510139,1.429123573638878,0.0020310741095851048,0.7735736165532776,0.9074398822100145,1.417784582436859,0.0020081420184986255
XL3234FANE-18,2839.0,0.8821435226963731,0.9152209055535493,1.45379507133855,0.0021740175116611816,0.8763082429582887,0.9186552827046109,1.4409413611326825,0.002158195341049656
1130PBE-18,289.0,0.797968809348836,0.9022524200933418,1.3738742132612716,0.001942177464664464,0.7933557091070085,0.9036680965816111,1.3909292580205541,0.001967659206368871
XL3234STFABI-18,517.0,0.8422957723464695,0.8957010438108166,1.463553700620193,0.00218506903628721,0.83747308320185,0.8962223248436052,1.4521468520379799,0.0021783201141042457
6001AV-18,148.0,1.1447289534480647,0.9281693115221019,1.4989919485630876,0.002263445382572601,1.1499031797491512,0.9290991952016305,1.4949355370723283,0.0022614015809855038
RENATAFANE-18,922.0,1.0217832978782806,0.9152943365469003,1.3855373830735898,0.001942484227901134,1.022692980105087,0.9143764775887362,1.3924531541236091,0.0019724645425043133
6001LUREXBI-18,133.0,0.9783588725340104,0.9236925923750197,1.459534620872791,0.0022168155141769077,0.9783691142650563,0.9231419088672659,1.4633576395679833,0.002229145148685554
6001FX-18,120.0,0.8250493179991462,0.9000226161339845,1.5296552407619004,0.0023648065901756524,0.8215532373034544,0.9002533960249739,1.530779241406614,0.002414669291904017
11495STFABI-18,182.0,0.9481829435374332,0.9061431687029408,1.4404545918948541,0.0020991023400179797,0.9338013036269555,0.9039626853032963,1.4323968513138807,0.002084403782070498
ANITAFANE-18,1083.0,0.9143858900162068,0.9204466924923079,1.4214264099807146,0.002081967607791837,0.9013552299875152,0.9223829463034185,1.4110378548975833,0.002066179051376265
11495STFANE-18,218.0,0.6829255761123098,0.8869063046393658,1.3948854301298308,0.001950875249624738,0.6779495953674005,0.8894271548586412,1.3836752164997534,0.0019337207465976863
XL2424FANE-18,1706.0,0.672610207425826,0.8701924585122991,1.4308627530527998,0.0020835894344115938,0.6683611879608027,0.8716638243794756,1.4361663961787183,0.002114073958115773
XL3240FANE-18,6635.0,0.8967047920850014,0.9048861218511087,1.440013574142888,0.0020688924505322774,0.8966259179195004,0.9054215565796222,1.449406580805382,0.002093725702943766
XL3253FANE-18,1266.0,0.9360169849728442,0.9072601461380655,1.3918160308660672,0.0019660756568953244,0.936974378835605,0.9068159054066762,1.3870782923810494,0.0019622026593883457
VE5006BL-18,407.0,0.9949388747578592,0.9377248024735231,1.331797740002139,0.0018517139101082343,0.997299943277957,0.9366889696177569,1.3353491846851293,0.001851152655608698
VE5006BI-18,332.0,1.0565186767107513,0.9230511642478433,1.3452561386779582,0.0018793759612500465,1.0540855372196742,0.9227319886767311,1.3578848121509823,0.001899138930943821
A3345909VI-18,504.0,1.0271580126707462,0.9183499913944644,1.4101016170650442,0.002014506841188118,1.0156576567178672,0.9203537473287526,1.3921320311592296,0.0020039035659544274
XL2424FABI-18,1519.0,0.9417549558538932,0.9014178469852983,1.4361712955614452,0.0020858101261659197,0.942712157017358,0.9033449455727323,1.4493918622501796,0.0021126136063522962
XL3232FABI-18,1961.0,0.8625148652999649,0.8986197503108052,1.432351320819838,0.002102231315285779,0.8589921403705406,0.902541355682561,1.4200072205301342,0.0020895902019042473
VE666VE-18,655.0,1.0657517632471676,0.9217305709998116,1.4347343898521847,0.0021418202788190586,1.0643927464234477,0.9211714736422034,1.437019197247746,0.0021568481356669693
XL2930FANE-18,522.0,0.8068049672061578,0.8937687057968393,1.425987442583751,0.002050990019439687,0.8058461829999491,0.8959130830392701,1.4376447128814893,0.002075684835146238
A3345909VM-18,379.0,0.7795375190788021,0.9002493980124803,1.3640004043040126,0.001970473927663702,0.7740716262281387,0.9018138051702759,1.365193695714155,0.0019851488237253353
11493FANE-18,3743.0,0.9966141239219343,0.9137184844727172,1.3955340269825065,0.001962263555590148,0.9962077199082213,0.9149055503324321,1.4071916668766344,0.0019939100340410666
G14FABI-18,1135.0,0.7425182062096752,0.8792635746380223,1.4504068157381746,0.0021271023991576593,0.7435945002631308,0.8807260741155107,1.462153905738217,0.002156381672257548
VE666AV-18,443.0,0.8970340556464383,0.909465655748769,1.4059917457071904,0.0020666014850295863,0.8895232262567758,0.9107124590626545,1.4131219131360315,0.00210010091972613
11362FANE-18,1899.0,1.0703762354447888,0.9218126433872439,1.4351791262084632,0.002090109285883846,1.0688116571238173,0.9230852416886139,1.4469237976964373,0.0021134991197380294
318175CO-18,715.0,1.1554674180431959,0.9115287625708777,1.6091390809121904,0.0025345665186958578,1.1427604149942026,0.9161671076084922,1.5992148149114587,0.002529449006871785
11495FANE-18,691.0,0.763479175975049,0.9032026846183606,1.4141512120850586,0.0020055369196300826,0.7624194411481171,0.9051767082623252,1.4030627122226615,0.001984039568281793
A3827G184FA-18,828.0,0.7181773667732402,0.8843459596102323,1.4702343897915802,0.002238275097914058,0.7158728399558368,0.8868567622299794,1.480936717665838,0.0022738081654468615
A3587B651FANE-18,2126.0,0.9074553833872102,0.9206932270739369,1.4284912596501596,0.0020768863664859406,0.9053978520932505,0.9251675135336939,1.4175364649252966,0.002059878718543362
109BI-18,382.0,0.7876392962779057,0.8883369958848043,1.4296866056242383,0.002097206959049243,0.7901509904947428,0.8939674911916162,1.4403588000700411,0.002107380302012812
VE5026FABI-18,1689.0,0.8210055303799111,0.8855529437496609,1.4177153702729193,0.001983369959298026,0.8190546723139138,0.8873889338389171,1.4299277539302437,0.0020078390997487466
ARC809PEAV-18,531.0,0.9737765761043065,0.9234265518803247,1.6178248336632952,0.0026281691362162823,0.9660745772130052,0.9259747181676949,1.6318091512353796,0.002664843491817776
1802LRS-18,255.0,1.020834927432244,0.9226742653859947,1.4327727935446974,0.002135157974277321,1.0173951015022775,0.9242125593702404,1.4348073412862967,0.002142799514518433
VE4418FABI-18,757.0,1.0143253615089638,0.9023706535451912,1.4511789927927705,0.0019811032382965606,1.016388802724121,0.9038767572720614,1.4669320730357245,0.0020068391103606363
1802LNE-18,302.0,1.0090231139038737,0.9258675501239009,1.4469081859591295,0.0021355711478239013,1.0051690944032305,0.9302508742597022,1.4483559196611804,0.0021264748713748036
E1FA-18,41.0,1.0279616273911496,0.9300830096409561,1.4482199717270339,0.002150842869394192,1.0254314819250174,0.9348309741087104,1.435929581983742,0.0021381141303421615
11564FANE-18,1692.0,0.9894924650948727,0.9145213809269374,1.458009519992615,0.00218804119669295,0.9903551110203345,0.9154325119418446,1.4694344174333036,0.0022186622923802703
XL3281FABI-18,507.0,0.8753838499738748,0.8982976676705211,1.3983075950735875,0.0019614690591594048,0.8751679928667766,0.9006408389798741,1.41293557209604,0.001989077463829942
GG2NE-18,428.0,0.7341527354493419,0.8774545260099526,1.4716450881091907,0.0021535640890516113,0.7271061260502583,0.8776572118191475,1.4755278972788237,0.002149174546888787
GG2RO-18,169.0,0.6773901490772002,0.818605315150696,1.48900939718716,0.002327878322970394,0.6770692224905723,0.8207234082206776,1.4938167594798446,0.0023435913722706396
XL3281FANE-18,675.0,0.9063183592633828,0.9012105269556305,1.4311949161253512,0.002044177073590963,0.910297839953796,0.9012113160103938,1.439027805710881,0.0020715681435395767
ALMP18983GI-18,892.0,0.7885813897620894,0.8794351633666864,1.416689225450714,0.0020039817053902767,0.7843654363911529,0.8775849385297768,1.4136110718844739,0.002000138546923427
LI9119338NE-18,715.0,0.9816975254401732,0.9072097195349663,1.4315414724897988,0.0020886163644017147,0.9769886882923006,0.9056676446902607,1.4379377395777073,0.002089210741006293
A3595B669FA-18,1209.0,0.82081778937739,0.9047503335336683,1.4203396691312429,0.0020781751169378308,0.8239875457480716,0.9054134660413979,1.4312238958125705,0.002103699591290471
A3191G176FANE-18,1269.0,0.8078219176147688,0.8886022827240508,1.3978857513573244,0.0019557127937182913,0.8056332267035706,0.8910078407921632,1.4063839378188807,0.0019827467667592035
318274BI-18,208.0,0.9564538533903072,0.898730480108976,1.3639112950924455,0.0019285363642648076,0.9559122594848841,0.8995337023663612,1.3717469855475566,0.0019175365941900722
XL3240CACHFA-18,408.0,0.8999730300662598,0.9055012866044283,1.4478802402179183,0.002029214297605618,0.8992066926720309,0.9063750646292934,1.4551151213736184,0.002059750634165629
A3881909RO-18,251.0,0.8458819710834363,0.8575669634126423,1.7938450021092418,0.0030919339843384166,0.854089078700766,0.8762037018394739,1.7731335459310003,0.0030839709355482215
318274VE-18,160.0,0.9848775211077875,0.9217556687484239,1.3997424832956844,0.0020521596790681502,0.9858463935611335,0.9206933256425643,1.3952593503906954,0.0020365101123287956
XL2424ROSEVIFANE-18,585.0,0.9445026609369381,0.8999029649841267,1.4050991357527305,0.0019869990779616702,0.9492683152432427,0.8998831249247093,1.411691510832155,0.0020091169604327733
A3652FANE-18,740.0,0.8676830946063481,0.9028281657091609,1.4398097910744705,0.002139059435861784,0.8655608722078798,0.9046682432991674,1.4540323468963172,0.0021748551231499684
XL2713FANE-18,1179.0,0.733574202167311,0.8841770728696785,1.401346760353465,0.0019851001098220673,0.7320507655052533,0.8861994230602385,1.4115539611277983,0.0020168728850331157
XL2713FABI-18,806.0,0.9290243701235549,0.9035562717214493,1.4308708552506813,0.002001651349187659,0.9308125917756664,0.9041139801247233,1.4393004229930069,0.0020338420932867647
11663FANE-18,1025.0,0.7320899724174835,0.8951526007958542,1.421943090298347,0.0020522244615552646,0.7282920805820783,0.8995496401289136,1.414717224768468,0.0020210642307049833
11493AIFA-18,827.0,0.7638093337801272,0.8806988532750989,1.3987734337341005,0.002008111647689656,0.7627202263825719,0.8826413640238304,1.4091186043173594,0.002034272856970244
11661FANE-18,1252.0,0.9082068494232906,0.9092550551254589,1.433385638111835,0.0020773458003422647,0.9092290211321064,0.9095357618899957,1.4415297208422908,0.002103010308744411
A5284T7T3NE-18,1889.0,1.0579556452377903,0.914182963182217,1.4537655908650766,0.0019557088881833697,1.057121211831607,0.9144132714587323,1.4563851035314057,0.001952302800880751
EE12FAFX-18,211.0,0.9877833109036804,0.9201379229961838,1.4167182788981034,0.0020333827199877394,0.9827726052533168,0.9231179488549233,1.403504910875475,0.0020081277189488707
XL3323ST3FANE-18,807.0,0.9211063478210276,0.9099639065868542,1.6287968212921669,0.0026624437131751648,0.9182818316309249,0.9094984869664494,1.6315800875096305,0.002683821535674778
1303LBE-18,279.0,0.9448785155478876,0.9247953364412274,1.4598389599393264,0.0022073188396529255,0.9469976735409723,0.924434156035886,1.4573595889855044,0.0022060725718553217
XL3232ST3FANE-18,689.0,0.8316464606749202,0.9032110140171561,1.5930563829250541,0.002483975695250698,0.8265717130409955,0.9067173238424062,1.57840681848919,0.0024568991742827014
EE9FARS-18,434.0,0.8480733709525765,0.9120678743925844,1.3424473761727602,0.0018235876941278958,0.8444591871811489,0.9161509445218516,1.3306966647798448,0.0017922723416476665
HM18325NE-18,239.0,0.9898268707464942,0.9037356588494965,1.463980283540842,0.002094530652793951,0.9855789428476824,0.9125314096144512,1.458838069408591,0.0020966787400330585
EE16FANE-18,400.0,0.8324841156551203,0.8921435461953268,1.4761933494427704,0.0022461438324483793,0.8284735882823346,0.8917459188466268,1.485963961580417,0.0022580227368029834
ME273FA-18,358.0,0.8004920218405355,0.9064623174888372,1.4862641365651124,0.002204207256393662,0.7964752976575743,0.904996260061937,1.495574920061984,0.0021972452702361533
EE29FAVE-18,98.0,0.9935827471412924,0.9255728597272869,1.5176795045234257,0.0022823741383133844,0.9877372409131666,0.9306588081117204,1.5082100168134636,0.002250811959962425
EE18FA-18,227.0,0.8233292404130053,0.9083866172288619,1.3350361778735298,0.0018101471691815967,0.8236771986625733,0.9060044174317765,1.3319464617079446,0.0018022323802708703
HM18325PE-18,173.0,0.882870084977256,0.9187049569518168,1.477954991229108,0.002173055581255645,0.8726383303800633,0.9160478566205443,1.4662260590271725,0.002162364321628206
A3951G294FA-18,232.0,0.97759970591166,0.9076607878044927,1.3651588149254783,0.0019124453276355598,0.9755509305682908,0.9078213738580437,1.3777580724097924,0.0019163221270297578
EE14FANE-18,1017.0,0.8975631245315064,0.925569369143541,1.4545300805048191,0.002031695925039517,0.8994952804981913,0.9276092451398248,1.4360679250836774,0.0020090148536690616
A38171124NE-18,1002.0,0.9341969958341526,0.9001598717557564,1.4756160884065572,0.0022002449923952255,0.9298854052290113,0.8986608886402071,1.4717510513966845,0.0022050956111127782
A5025T9NE-18,802.0,1.4934866327676153,0.927286663921283,1.7963020522515143,0.003090353608381962,1.4938845873745699,0.9350874764055255,1.805004901212973,0.003069581164691469
EE13FANE-18,977.0,1.0420499317875527,0.9318599138330311,1.4743068550608756,0.002195255981186759,1.0356937819091177,0.9379455459334773,1.4662912502667003,0.0021699646985727395
A3333B517L1FANE-18,613.0,0.7613187611135496,0.8981029634045167,1.6788940466596156,0.002897927292644615,0.7595658320637408,0.8978531591999029,1.6783387354132082,0.002898714159031867
M8423909RS-18,205.0,0.7592391768344972,0.8838608741155086,1.3325598674510313,0.0018575314894530715,0.7622419535852671,0.8852540229248654,1.3293078644312497,0.0018569303862151609
A3333B843MIL1FA-18,685.0,1.206395530054608,0.9191567532542271,1.6636122567194047,0.0025730298482269814,1.2084232082425441,0.9199900483442993,1.6606521219830181,0.0025797130942972627
A3682M2L1PE-18,1235.0,0.9651673251514977,0.9092821212560485,1.5997410291253573,0.002485115259407039,0.9651695788274861,0.9109663047192655,1.6066862906972466,0.002475526746652687
M8423909BI-18,293.0,0.7501967105307833,0.8582752840981257,1.3343573856004458,0.001842295313200389,0.7461485496118354,0.8615869158273262,1.347799104556017,0.001854028306165486
A3682M2L1NE-18,633.0,1.4097918362052138,0.9242131902162911,1.6790186063262775,0.0027654261487065714,1.4015540874518106,0.9248376551621904,1.677287057999514,0.0027702805952499404
XL3321ST1FANE-18,1334.0,1.0389120928086713,0.9288636842618301,1.5055092651791335,0.0022796148029016697,1.0346270428426187,0.92970918525315,1.4888455867767334,0.0022607128436748797
XL3240ST3FABE-18,290.0,0.9015040262456626,0.9079109438409771,1.555098239236578,0.002419307460525883,0.9027354095620699,0.9099098059940336,1.5492313000822424,0.0024301095855534132
XL3325ST12FA-18,1551.0,0.9728824091969414,0.9121470500378402,1.5895449080568316,0.0026487248756017876,0.9737195248740906,0.9141890251944365,1.5920888081368025,0.002645669337349446
XL3240ST2FA-18,421.0,0.7956727983536931,0.8876129841938765,1.566553604123324,0.002546167121267537,0.7961915205562933,0.8900174622714115,1.5620360687278447,0.0025557128612629714
EE17SE-18,40.0,0.8236434848369241,0.8993645563986252,1.3592346651027538,0.001902018638555732,0.8253411434548568,0.9014444500665726,1.3758218699226192,0.0019166247352092368
EE32FABI-18,70.0,1.3632682621052579,0.931845536160727,1.7379249434553097,0.002956455082416489,1.3629371035188664,0.9314374523002451,1.7196947429412306,0.002935824506415679
EE33BX-18,44.0,1.1645409866487568,0.9069426281788343,1.8436870495238609,0.003589045169522565,1.1598238447644937,0.9047683929723876,1.8459246546735422,0.003579726435675691
XL3240ST3FAVE-18,273.0,0.7937353722420034,0.8895759974438419,1.5828544371487279,0.0024759816852762202,0.7943114859298112,0.8905172660320364,1.5767921968326761,0.002490958634111518
EE28FANE-18,1562.0,1.0973081158049196,0.9322065341421424,1.6645372585576081,0.0028748078081210523,1.0938059004139955,0.9329185639247641,1.6519373462571727,0.002854523178069822
EE24FANE-18,1781.0,1.2746139519584363,0.9390295054873053,1.538457059043969,0.0024222177845792158,1.2727681127467885,0.9392429355480303,1.5258910440779352,0.0024047257650404003
ME130NE-18,498.0,1.1617497493999809,0.9131530841821753,1.7400160171832404,0.002890105587219797,1.1616499015667114,0.9190656091929091,1.7507695799219614,0.0029008504163253045
11896FABX-18,294.0,1.1660237960415394,0.9361506106919655,1.821910890368785,0.0031427740434940843,1.1633993301240024,0.9371801745781532,1.7987049756894602,0.0031254905484738487
EE40FA-18,733.0,0.9236267802568355,0.9215269652435145,1.4295575274792736,0.002063820808622488,0.9189801510698714,0.9225246618225184,1.4133823346010388,0.0020346499559688964
EE41NE-18,1183.0,0.9337064442942227,0.9412866408664979,1.6090842573077146,0.002375621499634368,0.935145551360968,0.9410912737973468,1.605893300244123,0.0023636365821410772
EE30FARS-18,1299.0,0.8149916985373772,0.8959649858696696,1.7861602322602013,0.0029985630438597003,0.8117526588576851,0.8953384505405402,1.764726547290888,0.0029832507995166788
LI91913AIFARS-18,1161.0,0.9165581407403288,0.9199821319179708,1.8049615964700998,0.0032608079740848624,0.9130766210295995,0.919419791877604,1.7872618352668195,0.0032402927554944514
F323NE-18,164.0,1.047375769256096,0.9335585088179831,1.7140343267130425,0.0030204461583947656,1.0517932001700787,0.9311027868927406,1.7083855147055562,0.0030166724371531654
EE41SE-18,1335.0,0.7416131382611605,0.8860835925040859,1.5061980126087908,0.002347055615182504,0.7336592493175792,0.8875601561913684,1.4928009703934013,0.002317217991117836
EE41VI-18,302.0,0.7818193953059153,0.9113324445510697,1.5041093425817105,0.002274734408749345,0.7804495840321524,0.9080946021151061,1.4987130947684515,0.0022699672293353393
1883LBE-18,413.0,1.0011030079179657,0.9257671227948374,1.4174883256463129,0.002069015391001773,0.9990264724936562,0.9271275683870154,1.4200055639984552,0.002068849553502732
EE39FA-18,821.0,0.8642722201789711,0.9051017537749756,1.4173900457809043,0.0020465567102389277,0.8663947069481683,0.9070762319779117,1.4196940409386087,0.002056413875382178
EE37BX-18,112.0,0.8579699602146343,0.9013991659780572,1.4315236405939002,0.0021163135438680837,0.8586048884331074,0.9041919239769135,1.4301806195424154,0.0021288230083882807
161AFA-18,594.0,1.4567553687346146,0.9395509345561895,1.821979954418639,0.0033024677000167042,1.4559821834366593,0.9397936396183293,1.803299725484373,0.0032766353714937463
XL3334FANE-18,959.0,0.9386333561479362,0.9184179710033037,1.4631758064697857,0.0021303111732724127,0.934346752532891,0.9186886819691613,1.4443561504020237,0.002106871044053279
EE38NE-18,396.0,1.0568487003948064,0.9128339145117789,1.520332710149831,0.0022644598743516236,1.0519911423792432,0.9123019552782881,1.520877525763968,0.0022790305001433187
EE45FARS-18,1235.0,0.7807180312887457,0.8865764949731388,1.399407436870465,0.001921375133986593,0.7780965174773363,0.8843330821950635,1.3831541722516096,0.0018941034766171293
XL3335FANE-18,323.0,1.1594336557889147,0.9138138047351131,1.5377453752711547,0.0023978279429252044,1.158381649476274,0.915927941734254,1.5328504390117275,0.002409192319640649
11877FANE-18,2902.0,0.7964688353162996,0.8998516279366786,1.4300812724992362,0.0020391407096389536,0.7934813571111767,0.8988812883492314,1.4139827355531662,0.002020885092253609
1883LFG-18,790.0,0.897371452270265,0.898873772738619,1.3773935000128585,0.001959539463613594,0.9070754312574392,0.9032796849329309,1.3718789289846565,0.0019277366974925422
268BFA-18,1391.0,0.9361697413355299,0.9078806418578744,1.4098226951065058,0.0019741582455728127,0.9386667464381251,0.9106687892811187,1.4082879583471,0.001977173800956957
A3737B949NE-18,166.0,0.9014508554637221,0.9092624432524031,1.583931532519774,0.002254248408354457,0.9035150865396362,0.9095174892426288,1.5881321759537013,0.002246058081823682
11806FANE-18,579.0,0.927477227644312,0.9095438717494266,1.3669270084937424,0.0019014419053410153,0.9286789240855262,0.911471782493616,1.3683689064479623,0.0019115582820859436
A3572909DNE-18,380.0,0.8487984790312767,0.9034378477512498,1.4157686706185555,0.001982454602248595,0.8506712960394387,0.9013285756401321,1.423015532697181,0.0019876822948483768
EE47FAVE-18,339.0,1.0268574166890805,0.9279830734654647,1.4319898994277913,0.00207751732043763,1.0174946214332765,0.9235807159617344,1.4205358270284059,0.002052018327296562
VG8203NE-18,372.0,0.9211770305144128,0.9165762426133898,1.5425828339728949,0.0020272926421800123,0.9075037839468366,0.9175670601937016,1.5492249047170281,0.0020216454688926615
VG8203GR-18,378.0,0.7546016890196187,0.9171557946390015,1.375316943953977,0.0019619941842397705,0.7456389566140571,0.9182932164007216,1.3685642134484546,0.001947769009792394
A3734B85NE-18,381.0,0.8914807392066066,0.8964226176854955,1.4431521651643713,0.0020168930096189455,0.8865887272073467,0.9029472515238595,1.4378267955930137,0.002002301932664736
A3729B941GFA-18,100.0,1.0393862726600744,0.9109394165619121,1.3967571058722126,0.0019614695176686575,1.0408412972699874,0.9122622797546059,1.3983565485654652,0.001967007093097023
A5025T7TBE-18,212.0,0.8653758351449446,0.8944546421789393,1.4579196732459216,0.0022121803411921646,0.864560567816554,0.9035211483461569,1.4646973011518614,0.002221949545158138
EE50FANE-18,140.0,1.055892041136615,0.9269192084384007,1.444091366964864,0.002082289544811001,1.0465538898957933,0.921525471453686,1.430939615810754,0.002065340915316056
EE51FA-18,748.0,0.8724353468713554,0.9258648447080353,1.4851967266941977,0.002211743703666129,0.876431874455841,0.9289646365998767,1.4751820187593783,0.002198067837584034
XL3386FA-18,618.0,0.863966228651249,0.880398390046753,1.6056057720373973,0.0023310459160453263,0.855351267762654,0.8797252243756087,1.6006991929220087,0.002313473967180091
EE41BISSE-18,1106.0,0.7447180476739063,0.8840884437306379,1.5429089840752608,0.0023614525990045964,0.7414047422545201,0.8831488274452435,1.537800449000632,0.0023620644350776654
MM16FANE-18,970.0,1.0288440044241518,0.9268052980119327,1.4251052882574669,0.002033501932027673,1.0194912140590229,0.9222599060298797,1.4102594322210307,0.002006102187258453
F385NE-18,205.0,1.1475691465931337,0.9178476031883162,1.5307391511285031,0.002207631283626356,1.1435735333729629,0.9247091485903137,1.5284072373237785,0.002193681473898938
XL3377FA-18,1557.0,0.926565678566971,0.9183038191052647,1.3669683291270454,0.001880359605411513,0.9174205035959812,0.9136371180834639,1.3564796293925097,0.0018569477234960637
A3753M2L1NE-18,311.0,0.9157463120405511,0.9043582498328826,1.4282649910310072,0.0021039841390263106,0.90985252401383,0.9023282550883052,1.4299585502256815,0.0021167891039605737
AM1981GG18NE-18,334.0,0.7669392712570186,0.8816133523665893,1.4425451992343847,0.0020678236637129165,0.7692074944015882,0.8792757106753988,1.4355305655307067,0.0020696102626739984
A5599T9POLNE-18,141.0,1.0806814115401975,0.9342857624343349,1.4595983073567915,0.0020980700233546356,1.0851981570978673,0.9335060464579527,1.4563545029744787,0.0020994924363635834
F406FA-18,433.0,0.772693308424557,0.9005772063167531,1.4350991480487683,0.002040687982585316,0.7691671223131438,0.8975845371894713,1.4205023963759267,0.0020013314312625112
8834NE-18,337.0,0.9903007026046526,0.9124915989483794,1.547849580768191,0.002298785609782845,0.9940371745561496,0.9116653633361922,1.5517137052520873,0.0023146260244849785
XL3367FANE-18,2417.0,0.7794966484906382,0.9002857110262182,1.352861665523198,0.001845654269859738,0.7761353126187281,0.8980153808757296,1.3413633588476626,0.0018132848779050623
AM19891BX-18,334.0,0.6173042670172184,0.8709933781331299,1.5189082342598075,0.002160325039238282,0.6009565992790579,0.868409627634079,1.5068048671428715,0.0021408352311304587
A5599T9POLVE-18,140.0,0.8541026978288749,0.9061438335635811,1.4904844757264868,0.002161936962427406,0.8478045233036324,0.904625388195847,1.4829228681320776,0.0021473172948807836
AM19891OT-18,121.0,0.715705806009148,0.8984050248101539,1.4794366586994594,0.0022364687679448576,0.7161215163689553,0.9009949364946652,1.4698443045031242,0.0022214229132230066
8710BE-18,241.0,0.952849789550183,0.9261748591293514,1.3456286835481883,0.0018813316785433777,0.9532878076801068,0.9261265973860815,1.3464942173832648,0.0018720260411682875
A3753M2L1PE-18,471.0,0.9430856917409387,0.9060393388515834,1.4446092516966347,0.0020872352560018046,0.9449270173670496,0.9071672970212139,1.4492673034299228,0.0020949835348214596
8710NE-18,310.0,0.8712593802105645,0.8831356756826958,1.4227246454561866,0.002089945677424912,0.8673906465959381,0.8827675661132859,1.4210144237112807,0.0021039441707343867
A3772T1NE-18,512.0,0.7917737069680327,0.883172044763911,1.6217565845076896,0.002276991353740486,0.79110643037772,0.8834136349688609,1.6266002882292305,0.002290161923756675
ALMA19422VI-18,19.0,0.9601239015058199,0.9339086971554426,1.4475923008452083,0.0021268690580371536,0.9605354119317459,0.9301191194092715,1.4405214471296284,0.002114760697325497
A3772B976TFANE-18,424.0,0.860605190940927,0.8833484340653422,1.401367149987948,0.0019707015708532445,0.8475955840340297,0.881243290684526,1.4004701973695919,0.00196576832176803
TFC18678ZEBFA-18,412.0,0.8604438587681525,0.9049276669818003,1.3813654641310054,0.001919095556489367,0.8579236874994121,0.9034584003205481,1.3670972580663467,0.0018948286251790577
A3772T1SE-18,220.0,1.016881149918475,0.9258399101908052,1.4983162217050552,0.002150149578330591,1.0186254766069114,0.9282757655476361,1.4960993240775735,0.0021388910702975546
EE62FAVE-18,92.0,0.994741056816014,0.9341515052346181,1.4813230913351558,0.002226468333207461,0.9964982865124627,0.9362525356134417,1.4727513720007503,0.002202207038751112
11877AIFANE-18,703.0,0.9244506550828842,0.9210828809247529,1.3559457759353604,0.0018335379416149539,0.9217272559784845,0.9167146429709037,1.3463316078130094,0.0018043964405915006
11455FANE-18,342.0,0.8873896836436327,0.9089411295737623,1.3261536576952218,0.0018039635065987367,0.8892040414082895,0.9095994000407001,1.3234092543787983,0.0018136103200345431
AM19891NRG-18,70.0,1.0091226224625667,0.9136002867133058,1.5621218168094577,0.0024177696159921494,0.9981303332599323,0.9135639410979829,1.5610763963055727,0.0024341880288006983
A4271909DNE-18,154.0,1.1509957583672135,0.917045168786811,1.519918211817191,0.002295547496990246,1.1503455948837735,0.9262493553653302,1.5110487827973975,0.0022515970160458853
A3368B941FFA-18,372.0,0.9413908254939161,0.9300440613857291,1.3795862910936565,0.0018992081252158525,0.9445139643582966,0.9324581691015582,1.3726450879455276,0.0018826506749155703
A3746B913DFANE-18,558.0,0.8549764839727617,0.9157827239375194,1.3617336169412038,0.0018421483149161835,0.8509294677714254,0.911125916761619,1.350985108769684,0.0018143243082495001
VG8200NE-18,305.0,0.933805391321105,0.9196294582809553,1.422521345572352,0.0021177869486207683,0.9298804145411316,0.9210513448009447,1.4264617302622467,0.002116172020309068
VG8202GR-18,282.0,0.7863054427411238,0.920374037849684,1.411432933622401,0.002044091624076074,0.7778763271691063,0.919262966433594,1.404179233109455,0.0020133441117960093
VG8200GR-18,219.0,0.7554691693251038,0.9150734887177313,1.4034171779087483,0.0018954773407310335,0.7471468784685332,0.9157435093349149,1.4013748464413731,0.0018674356305082847
VG8202BE-18,155.0,0.9094766830361797,0.9117298386978883,1.4125189826730562,0.0020623022368980886,0.9042171154370031,0.9125091875946694,1.4154887743748217,0.0020692541527899877
VG8202NE-18,398.0,0.9297367067222945,0.9148248959545121,1.5272735456042568,0.002287581819333287,0.9261798199719885,0.9155656000437636,1.52879042288406,0.002286732753860616
ALMA19379FANE-18,514.0,0.7262762719081857,0.8951358886651323,1.3496883122190078,0.0018156164357221946,0.7246658247632536,0.8939309504830046,1.3381534715285899,0.0017981186915243697
A3727A735NE-18,641.0,0.8396949279885887,0.9165060051796555,1.4897409754426283,0.0020572093888819305,0.8318481884937798,0.9172605736033632,1.4741444081011323,0.002030265080768703
EE63FA-18,1328.0,0.6538536697685614,0.8942256974708686,1.4373460147576234,0.0021060114269718273,0.6563730128993877,0.8935476010201288,1.4272550919468587,0.002094796290167974
12015FA-18,3927.0,0.9611521708345395,0.9206539673220374,1.4248668453281301,0.0020050624702757417,0.9583282754741533,0.9159275164376761,1.4128476167953585,0.0019751941028292364
ALMA193688FANE-18,427.0,1.0302733103142891,0.9360672077252724,1.4903437049768662,0.002269909267421259,1.023368955524528,0.935782358404547,1.4955236903744595,0.002275273260012224
1721BE-18,3429.0,0.6697696023500798,0.8777198047108602,1.393666145003416,0.0019881194333557276,0.6657175295768876,0.8785597369914031,1.3964920216609562,0.0019930878174352885
1721GR-18,4093.0,0.8937754170722353,0.9401418860165518,1.3901250553746027,0.001989697633986027,0.8867499753562189,0.94185478287816,1.3860992895841586,0.0019649393403963393
18042BFASE-18,1021.0,0.9827108465261154,0.9275323461210517,1.369354721890061,0.001824359169730199,0.9848564771936754,0.9247962145045423,1.3691104877472282,0.0018132827015456799
18010FANE-18,592.0,0.8860459035493995,0.9241216200947574,1.3153909268827915,0.0017556924806366397,0.8875952083173166,0.9224064208883087,1.3163947651892791,0.0017464019644676024
18010FABE-18,660.0,0.9701370866380028,0.920792976947383,1.375194489476389,0.0018226915360491527,0.9717701196934945,0.9187657242083087,1.3756596477283947,0.0018127289794794585
18042BFAGR-18,622.0,0.6968135455595844,0.897931681210093,1.3230204166073736,0.001692231505267873,0.6967164125705361,0.8967430845427107,1.3234136767123728,0.001684179022009637
A5629T9T7NE-18,343.0,0.8426902086798379,0.8984763682142837,1.439237883327509,0.0021241576413475157,0.8379657090706569,0.8967867768148232,1.4387873394210287,0.0021266062274846757
MM23FA-18,209.0,0.8321197980138892,0.9034996327746057,1.3799597196253757,0.001939218333695672,0.8341184185745129,0.9035925726760585,1.3738478679946808,0.0019466182243860302
EE57FANE-18,839.0,0.8871051077917057,0.9163621150838056,1.4113576017431058,0.001835865015458198,0.8837075087804367,0.9119407739622039,1.4005989712511333,0.0018042931216414645
EE61FA-18,455.0,0.8273839179712928,0.90755710542041,1.4055265091805966,0.001974517773147504,0.8237699891799637,0.9038302192091936,1.3917162950141568,0.00195905887879859
208AFA-18,1733.0,0.8369387195305368,0.9126350813149856,1.4778281493705154,0.002235240213845755,0.837837594484997,0.9129663539574677,1.470631223436275,0.002219766963251852
TFC18678PITFA-18,178.0,0.9028736953905906,0.9121697625558155,1.4533289037878492,0.00212252713672764,0.8999594670471764,0.9087108037055265,1.4379820186695618,0.0021002145743703815
A3764T1A527NE-18,490.0,1.0647771467952951,0.9222225793015563,1.582584542012232,0.002313499514834574,1.069509967693415,0.9205134801373975,1.5896190974447462,0.0023190093418908497
LI9208387FA-18,1779.0,0.8701320561071783,0.9205511080670865,1.4512647122956477,0.001986569260173185,0.871451312826271,0.9220176047964868,1.453356876131756,0.001972928809028516
8663NE-18,500.0,0.8989758459700199,0.894819416174367,1.4082668962311038,0.0019417388825739817,0.89678346533592,0.9029425719380251,1.40427686094554,0.0019022801628385904
A3748T1CM-18,420.0,0.8238843122079157,0.8972835119423169,1.457490221346805,0.002145773882677765,0.8151741177481833,0.904604127293125,1.4582720151707678,0.0021562306163437385
18575PITFA-18,115.0,0.8171492774405461,0.9100569771700301,1.3557360350136347,0.001921890935797438,0.818076762376873,0.9088625714959495,1.3574294938914861,0.00192080691153554
EE69NE-18,149.0,1.2103094105280963,0.9184245574069868,1.6181053774995686,0.002560319435436106,1.2134768710501591,0.9250867057490781,1.6032982900975243,0.0025280257998649665
A3748T1NE-18,709.0,1.0272885741115323,0.9047082142266064,1.6557857383736116,0.0022657125372908195,1.0275646299176446,0.9144413467314203,1.659357781128961,0.0022460181979432
18575MACFA-18,164.0,0.7172869124831777,0.8874365865609045,1.3671887890591066,0.001934177593412039,0.716658139978446,0.8858673709205385,1.367481915674089,0.001929226636743895
12105209FA-18,668.0,0.8444187507179305,0.9060525286622857,1.4461225684129966,0.002116837617238926,0.8403925806077568,0.9023730237200198,1.4296919415878877,0.0021045125221282237
A5166F28T15FANE-18,2986.0,0.7128627363706408,0.9091855233804099,1.4478328723334737,0.0021207723428928547,0.7178370330432071,0.909556359113211,1.440331761728904,0.0021069372679145128
VG8186GR-18,482.0,0.820456701177965,0.9198819377839961,1.4233447510858463,0.002114437544044084,0.8131362580864399,0.9205533599359472,1.4192154279916114,0.0020951629287795344
ME5122FANE-18,878.0,1.0446954797386283,0.9286091478953487,1.4560158511300376,0.0020524446311116803,1.041659472315498,0.9235927116494274,1.4349791196862465,0.00204341507182931
ME280FANE-18,750.0,0.798589014391894,0.9153462934039119,1.5338100363608784,0.002398691100235429,0.7888798973675477,0.9127353661805001,1.532514933403776,0.002386220581440145
EE65NE-18,891.0,0.935967601956655,0.9082766746936123,1.436025195378808,0.0020273876858473987,0.9386544635136329,0.9057372220616005,1.4111844855840459,0.002011435227790355
LI92070135FANE-18,933.0,0.6863136724256104,0.9091481251094078,1.4150550031964253,0.002009335234008484,0.6907990590271569,0.9115982947435062,1.4050932786251296,0.001998229977292816
VG8189GR-18,525.0,0.7002771509561793,0.9058036107847321,1.6549880920543398,0.002706907500009633,0.6907757197761348,0.904602291395186,1.6461127519291896,0.0026845089331311717
VG8186NE-18,468.0,0.9553698551708131,0.9352201139869335,1.3715216800268124,0.0018313136966438433,0.9378820130956259,0.9301191278648177,1.3026743611646077,0.0017561274345475014
